98 2.15 -1.1 2.87978 
97 2.15 -1.1 2.61798 
96 2.15 -1.1 2.35618 
95 2.15 -1.1 2.09438 
111 2.15 0.4 -2.8798 
110 2.15 0.4 -3.1416 
112 2.15 0.4 -2.618 
113 2.15 0.4 -2.3562 
121 2.15 0.9 3.14158 
120 2.15 0.9 -2.0944 
119 2.15 0.9 -2.3562 
117 2.15 0.9 -2.8798 
118 2.15 0.9 -2.618 
116 2.15 0.9 -3.1416 
114 2.15 0.4 2.87978 
115 2.15 0.4 3.14158 
122 2.15 1.4 -2.8798 
126 2.15 1.4 -1.83261 
125 2.15 1.4 -2.0944 
124 2.15 1.4 -2.3562 
123 2.15 1.4 -2.618 
99 2.15 -0.6 -3.1416 
108 2.15 -0.1 2.87978 
109 2.15 -0.1 3.14158 
107 2.15 -0.1 2.61798 
104 2.15 -0.1 -3.1416 
105 2.15 -0.1 -2.8798 
106 2.15 -0.1 -2.618 
101 2.15 -0.6 2.61798 
100 2.15 -0.6 2.35618 
103 2.15 -0.6 3.14158 
102 2.15 -0.6 2.87978 
90 1.65 1.4 -2.618 
91 1.65 1.4 -2.3562 
92 1.65 1.4 -2.0944 
93 1.65 1.4 -1.83261 
94 1.65 1.4 -1.57081 
87 1.65 0.9 -2.3562 
86 1.65 0.9 -2.618 
85 1.65 0.9 -2.8798 
89 1.65 0.9 -1.83261 
88 1.65 0.9 -2.0944 
68 1.65 -1.1 2.61798 
65 1.65 -1.1 1.83258 
67 1.65 -1.1 2.35618 
66 1.65 -1.1 2.09438 
52 1.15 -1.1 1.30898 
56 1.15 -1.1 2.35618 
55 1.15 -1.1 2.09438 
54 1.15 -1.1 1.83258 
53 1.15 -1.1 1.57078 
69 1.65 -0.6 -3.1416 
73 1.65 -0.6 2.87978 
74 1.65 -0.6 3.14158 
71 1.65 -0.6 2.35618 
72 1.65 -0.6 2.61798 
70 1.65 -0.6 2.09438 
83 1.65 0.4 -2.3562 
81 1.65 0.4 -2.8798 
82 1.65 0.4 -2.618 
80 1.65 0.4 -3.1416 
78 1.65 -0.1 2.87978 
77 1.65 -0.1 2.61798 
79 1.65 -0.1 3.14158 
76 1.65 -0.1 -2.8798 
75 1.65 -0.1 -3.1416 
84 1.65 0.4 3.14158 
64 1.15 1.4 -1.30901 
63 1.15 1.4 -1.57081 
62 1.15 1.4 -1.83261 
61 1.15 1.4 -2.0944 
60 1.15 1.4 -2.3562 
58 1.15 0.9 -1.83261 
57 1.15 0.9 -2.0944 
59 1.15 0.9 -1.57081 
0 0 0 0 
20 -0.35 0.9 -1.04721 
22 -0.35 0.9 -0.52361 
23 -0.35 0.9 -0.261811 
21 -0.35 0.9 -0.785409 
3 -0.35 -1.1 0.785385 
2 -0.35 -1.1 0.523586 
5 -0.35 -1.1 1.30898 
4 -0.35 -1.1 1.04718 
1 -0.35 -1.1 0.261787 
6 -0.35 -0.6 -1.2e-05 
10 -0.35 -0.6 1.04718 
9 -0.35 -0.6 0.785385 
8 -0.35 -0.6 0.523586 
7 -0.35 -0.6 0.261787 
11 -0.35 -0.1 -0.261811 
12 -0.35 -0.1 -1.2e-05 
13 -0.35 -0.1 0.261787 
14 -0.35 -0.1 0.523586 
15 -0.35 0.4 -0.785409 
18 -0.35 0.4 -1.2e-05 
19 -0.35 0.4 0.261787 
16 -0.35 0.4 -0.52361 
17 -0.35 0.4 -0.261811 
25 -0.35 1.4 -1.04721 
24 -0.35 1.4 -1.30901 
27 -0.35 1.4 -0.52361 
26 -0.35 1.4 -0.785409 
45 0.65 -1.1 1.83258 
44 0.65 -1.1 1.57078 
43 0.65 -1.1 1.30898 
42 0.65 -1.1 1.04718 
30 0.15 -1.1 1.04718 
29 0.15 -1.1 0.785385 
28 0.15 -1.1 0.523586 
32 0.15 -1.1 1.57078 
31 0.15 -1.1 1.30898 
46 0.65 0.9 -1.57081 
48 0.65 1.4 -1.83261 
47 0.65 1.4 -2.0944 
51 0.65 1.4 -1.04721 
50 0.65 1.4 -1.30901 
49 0.65 1.4 -1.57081 
41 0.15 1.4 -0.785409 
40 0.15 1.4 -1.04721 
39 0.15 1.4 -1.30901 
38 0.15 1.4 -1.57081 
34 0.15 0.9 -1.30901 
35 0.15 0.9 -1.04721 
36 0.15 0.9 -0.785409 
33 0.15 0.9 -1.57081 
37 0.15 0.9 -0.52361 
