{
	"total_time": 481.054,
	"search_time": 335.429,
	"search_time_alt": 335.42,
	"memory": 5200720,
	"generated": 8154855,
	"expanded": 414067,
	"evaluated": 8154855,
	"gen_per_second": 24311.720703,
	"eval_per_second": 24311.720703,
	"solved": true,
	"valid": true,
	"out_of_memory": false,
	"plan_length": 84,
	"plan": ["transition_arm(t15)", "grasp-object(o34)", "transition_arm(t10013)", "transition_arm(t17)", "place-object(o34)", "transition_arm(t10017)", "transition_arm(t22)", "grasp-object(o44)", "transition_arm(t10021)", "transition_base(e204)", "transition_base(e10189)", "transition_arm(t54)", "place-object(o44)", "transition_arm(t10052)", "transition_arm(t71)", "grasp-object(o41)", "transition_arm(t10071)", "transition_base(e188)", "transition_base(e65)", "transition_base(e10165)", "transition_arm(t16)", "place-object(o41)", "transition_arm(t10016)", "transition_arm(t52)", "grasp-object(o18)", "transition_arm(t10051)", "transition_arm(t37)", "place-object(o18)", "transition_arm(t10037)", "transition_arm(t16)", "grasp-object(o41)", "transition_arm(t10016)", "transition_arm(t15)", "place-object(o41)", "transition_arm(t10013)", "transition_base(e165)", "transition_base(e81)", "transition_base(e64)", "transition_arm(t60)", "grasp-object(o22)", "transition_arm(t10059)", "transition_base(e10112)", "transition_base(e10099)", "transition_base(e10161)", "transition_arm(t16)", "place-object(o22)", "transition_arm(t10016)", "transition_arm(t90)", "grasp-object(o16)", "transition_arm(t10087)", "transition_base(e162)", "transition_base(e81)", "transition_base(e10182)", "transition_arm(t14)", "place-object(o16)", "transition_arm(t10013)", "transition_base(e182)", "transition_base(e64)", "transition_arm(t89)", "grasp-object(o4)", "transition_arm(t10087)", "transition_base(e204)", "transition_base(e10189)", "transition_arm(t86)", "place-object(o4)", "transition_arm(t10082)", "transition_base(e188)", "transition_base(e64)", "transition_arm(t43)", "grasp-object(o27)", "transition_arm(t10043)", "transition_base(e10112)", "transition_base(e10099)", "transition_base(e10158)", "transition_arm(t43)", "place-object(o27)", "transition_arm(t10043)", "transition_base(e157)", "transition_base(e10163)", "transition_arm(t14)", "grasp-object(o41)", "transition_arm(t10013)", "transition_arm(t16)", "place-object(o41)"]
}
