[INFO][ 0.03966] Loading Type index...
[INFO][ 0.05290] Loading Object index...
[INFO][ 0.05356] Loading Symbol index...
[INFO][ 0.05363] Loading Variable index...
[INFO][ 0.05376] Loading Metadata...
[INFO][ 0.05378] All indexes loaded
[INFO][ 0.19116] Loading initial state...
[INFO][ 0.19127] Loading action data...
[INFO][ 0.19272] Loading goal formula...
[INFO][ 0.19302] Loading state constraints...
[INFO][ 0.21727] Created a direct sat. manager for formula: confo(o16) = co21 and confo(o4) = co178 and confo(o14) = co75 and confo(o25) = co155 and confo(o29) = co42 and confo(o27) = co86 and confo(o11) = co48 and confo(o21) = co109
[INFO][ 0.22633] Problem instance loaded:
Planning Problem [domain: ctmp.tables_3_1_01, instance: instance_40_8_5]
Goal Conditions:
------------------
	confo(o16) = co21 and confo(o4) = co178 and confo(o14) = co75 and confo(o25) = co155 and confo(o29) = co42 and confo(o27) = co86 and confo(o11) = co48 and confo(o21) = co109

State Constraints:
------------------
	@nonoverlap_ro(confb(rob), traj(rob), confo(o1)) = 1 and @nonoverlap_ro(confb(rob), traj(rob), confo(o2)) = 1 and @nonoverlap_ro(confb(rob), traj(rob), confo(o3)) = 1 and @nonoverlap_ro(confb(rob), traj(rob), confo(o4)) = 1 and @nonoverlap_ro(confb(rob), traj(rob), confo(o5)) = 1 and @nonoverlap_ro(confb(rob), traj(rob), confo(o6)) = 1 and @nonoverlap_ro(confb(rob), traj(rob), confo(o7)) = 1 and @nonoverlap_ro(confb(rob), traj(rob), confo(o8)) = 1 and @nonoverlap_ro(confb(rob), traj(rob), confo(o9)) = 1 and @nonoverlap_ro(confb(rob), traj(rob), confo(o10)) = 1 and @nonoverlap_ro(confb(rob), traj(rob), confo(o11)) = 1 and @nonoverlap_ro(confb(rob), traj(rob), confo(o12)) = 1 and @nonoverlap_ro(confb(rob), traj(rob), confo(o13)) = 1 and @nonoverlap_ro(confb(rob), traj(rob), confo(o14)) = 1 and @nonoverlap_ro(confb(rob), traj(rob), confo(o15)) = 1 and @nonoverlap_ro(confb(rob), traj(rob), confo(o16)) = 1 and @nonoverlap_ro(confb(rob), traj(rob), confo(o17)) = 1 and @nonoverlap_ro(confb(rob), traj(rob), confo(o18)) = 1 and @nonoverlap_ro(confb(rob), traj(rob), confo(o19)) = 1 and @nonoverlap_ro(confb(rob), traj(rob), confo(o20)) = 1 and @nonoverlap_ro(confb(rob), traj(rob), confo(o21)) = 1 and @nonoverlap_ro(confb(rob), traj(rob), confo(o22)) = 1 and @nonoverlap_ro(confb(rob), traj(rob), confo(o23)) = 1 and @nonoverlap_ro(confb(rob), traj(rob), confo(o24)) = 1 and @nonoverlap_ro(confb(rob), traj(rob), confo(o25)) = 1 and @nonoverlap_ro(confb(rob), traj(rob), confo(o26)) = 1 and @nonoverlap_ro(confb(rob), traj(rob), confo(o27)) = 1 and @nonoverlap_ro(confb(rob), traj(rob), confo(o28)) = 1 and @nonoverlap_ro(confb(rob), traj(rob), confo(o29)) = 1 and @nonoverlap_ro(confb(rob), traj(rob), confo(o30)) = 1 and @nonoverlap_ro(confb(rob), traj(rob), confo(o31)) = 1 and @nonoverlap_ro(confb(rob), traj(rob), confo(o32)) = 1 and @nonoverlap_ro(confb(rob), traj(rob), confo(o33)) = 1 and @nonoverlap_ro(confb(rob), traj(rob), confo(o34)) = 1 and @nonoverlap_ro(confb(rob), traj(rob), confo(o35)) = 1 and @nonoverlap_ro(confb(rob), traj(rob), confo(o36)) = 1 and @nonoverlap_ro(confb(rob), traj(rob), confo(o37)) = 1 and @nonoverlap_ro(confb(rob), traj(rob), confo(o38)) = 1 and @nonoverlap_ro(confb(rob), traj(rob), confo(o39)) = 1 and @nonoverlap_ro(confb(rob), traj(rob), confo(o40)) = 1 and @nonoverlap_oo(confo(o1), confo(o2)) = 1 and @nonoverlap_oo(confo(o1), confo(o3)) = 1 and @nonoverlap_oo(confo(o1), confo(o4)) = 1 and @nonoverlap_oo(confo(o1), confo(o5)) = 1 and @nonoverlap_oo(confo(o1), confo(o6)) = 1 and @nonoverlap_oo(confo(o1), confo(o7)) = 1 and @nonoverlap_oo(confo(o1), confo(o8)) = 1 and @nonoverlap_oo(confo(o1), confo(o9)) = 1 and @nonoverlap_oo(confo(o1), confo(o10)) = 1 and @nonoverlap_oo(confo(o1), confo(o11)) = 1 and @nonoverlap_oo(confo(o1), confo(o12)) = 1 and @nonoverlap_oo(confo(o1), confo(o13)) = 1 and @nonoverlap_oo(confo(o1), confo(o14)) = 1 and @nonoverlap_oo(confo(o1), confo(o15)) = 1 and @nonoverlap_oo(confo(o1), confo(o16)) = 1 and @nonoverlap_oo(confo(o1), confo(o17)) = 1 and @nonoverlap_oo(confo(o1), confo(o18)) = 1 and @nonoverlap_oo(confo(o1), confo(o19)) = 1 and @nonoverlap_oo(confo(o1), confo(o20)) = 1 and @nonoverlap_oo(confo(o1), confo(o21)) = 1 and @nonoverlap_oo(confo(o1), confo(o22)) = 1 and @nonoverlap_oo(confo(o1), confo(o23)) = 1 and @nonoverlap_oo(confo(o1), confo(o24)) = 1 and @nonoverlap_oo(confo(o1), confo(o25)) = 1 and @nonoverlap_oo(confo(o1), confo(o26)) = 1 and @nonoverlap_oo(confo(o1), confo(o27)) = 1 and @nonoverlap_oo(confo(o1), confo(o28)) = 1 and @nonoverlap_oo(confo(o1), confo(o29)) = 1 and @nonoverlap_oo(confo(o1), confo(o30)) = 1 and @nonoverlap_oo(confo(o1), confo(o31)) = 1 and @nonoverlap_oo(confo(o1), confo(o32)) = 1 and @nonoverlap_oo(confo(o1), confo(o33)) = 1 and @nonoverlap_oo(confo(o1), confo(o34)) = 1 and @nonoverlap_oo(confo(o1), confo(o35)) = 1 and @nonoverlap_oo(confo(o1), confo(o36)) = 1 and @nonoverlap_oo(confo(o1), confo(o37)) = 1 and @nonoverlap_oo(confo(o1), confo(o38)) = 1 and @nonoverlap_oo(confo(o1), confo(o39)) = 1 and @nonoverlap_oo(confo(o1), confo(o40)) = 1 and @nonoverlap_oo(confo(o2), confo(o3)) = 1 and @nonoverlap_oo(confo(o2), confo(o4)) = 1 and @nonoverlap_oo(confo(o2), confo(o5)) = 1 and @nonoverlap_oo(confo(o2), confo(o6)) = 1 and @nonoverlap_oo(confo(o2), confo(o7)) = 1 and @nonoverlap_oo(confo(o2), confo(o8)) = 1 and @nonoverlap_oo(confo(o2), confo(o9)) = 1 and @nonoverlap_oo(confo(o2), confo(o10)) = 1 and @nonoverlap_oo(confo(o2), confo(o11)) = 1 and @nonoverlap_oo(confo(o2), confo(o12)) = 1 and @nonoverlap_oo(confo(o2), confo(o13)) = 1 and @nonoverlap_oo(confo(o2), confo(o14)) = 1 and @nonoverlap_oo(confo(o2), confo(o15)) = 1 and @nonoverlap_oo(confo(o2), confo(o16)) = 1 and @nonoverlap_oo(confo(o2), confo(o17)) = 1 and @nonoverlap_oo(confo(o2), confo(o18)) = 1 and @nonoverlap_oo(confo(o2), confo(o19)) = 1 and @nonoverlap_oo(confo(o2), confo(o20)) = 1 and @nonoverlap_oo(confo(o2), confo(o21)) = 1 and @nonoverlap_oo(confo(o2), confo(o22)) = 1 and @nonoverlap_oo(confo(o2), confo(o23)) = 1 and @nonoverlap_oo(confo(o2), confo(o24)) = 1 and @nonoverlap_oo(confo(o2), confo(o25)) = 1 and @nonoverlap_oo(confo(o2), confo(o26)) = 1 and @nonoverlap_oo(confo(o2), confo(o27)) = 1 and @nonoverlap_oo(confo(o2), confo(o28)) = 1 and @nonoverlap_oo(confo(o2), confo(o29)) = 1 and @nonoverlap_oo(confo(o2), confo(o30)) = 1 and @nonoverlap_oo(confo(o2), confo(o31)) = 1 and @nonoverlap_oo(confo(o2), confo(o32)) = 1 and @nonoverlap_oo(confo(o2), confo(o33)) = 1 and @nonoverlap_oo(confo(o2), confo(o34)) = 1 and @nonoverlap_oo(confo(o2), confo(o35)) = 1 and @nonoverlap_oo(confo(o2), confo(o36)) = 1 and @nonoverlap_oo(confo(o2), confo(o37)) = 1 and @nonoverlap_oo(confo(o2), confo(o38)) = 1 and @nonoverlap_oo(confo(o2), confo(o39)) = 1 and @nonoverlap_oo(confo(o2), confo(o40)) = 1 and @nonoverlap_oo(confo(o3), confo(o4)) = 1 and @nonoverlap_oo(confo(o3), confo(o5)) = 1 and @nonoverlap_oo(confo(o3), confo(o6)) = 1 and @nonoverlap_oo(confo(o3), confo(o7)) = 1 and @nonoverlap_oo(confo(o3), confo(o8)) = 1 and @nonoverlap_oo(confo(o3), confo(o9)) = 1 and @nonoverlap_oo(confo(o3), confo(o10)) = 1 and @nonoverlap_oo(confo(o3), confo(o11)) = 1 and @nonoverlap_oo(confo(o3), confo(o12)) = 1 and @nonoverlap_oo(confo(o3), confo(o13)) = 1 and @nonoverlap_oo(confo(o3), confo(o14)) = 1 and @nonoverlap_oo(confo(o3), confo(o15)) = 1 and @nonoverlap_oo(confo(o3), confo(o16)) = 1 and @nonoverlap_oo(confo(o3), confo(o17)) = 1 and @nonoverlap_oo(confo(o3), confo(o18)) = 1 and @nonoverlap_oo(confo(o3), confo(o19)) = 1 and @nonoverlap_oo(confo(o3), confo(o20)) = 1 and @nonoverlap_oo(confo(o3), confo(o21)) = 1 and @nonoverlap_oo(confo(o3), confo(o22)) = 1 and @nonoverlap_oo(confo(o3), confo(o23)) = 1 and @nonoverlap_oo(confo(o3), confo(o24)) = 1 and @nonoverlap_oo(confo(o3), confo(o25)) = 1 and @nonoverlap_oo(confo(o3), confo(o26)) = 1 and @nonoverlap_oo(confo(o3), confo(o27)) = 1 and @nonoverlap_oo(confo(o3), confo(o28)) = 1 and @nonoverlap_oo(confo(o3), confo(o29)) = 1 and @nonoverlap_oo(confo(o3), confo(o30)) = 1 and @nonoverlap_oo(confo(o3), confo(o31)) = 1 and @nonoverlap_oo(confo(o3), confo(o32)) = 1 and @nonoverlap_oo(confo(o3), confo(o33)) = 1 and @nonoverlap_oo(confo(o3), confo(o34)) = 1 and @nonoverlap_oo(confo(o3), confo(o35)) = 1 and @nonoverlap_oo(confo(o3), confo(o36)) = 1 and @nonoverlap_oo(confo(o3), confo(o37)) = 1 and @nonoverlap_oo(confo(o3), confo(o38)) = 1 and @nonoverlap_oo(confo(o3), confo(o39)) = 1 and @nonoverlap_oo(confo(o3), confo(o40)) = 1 and @nonoverlap_oo(confo(o4), confo(o5)) = 1 and @nonoverlap_oo(confo(o4), confo(o6)) = 1 and @nonoverlap_oo(confo(o4), confo(o7)) = 1 and @nonoverlap_oo(confo(o4), confo(o8)) = 1 and @nonoverlap_oo(confo(o4), confo(o9)) = 1 and @nonoverlap_oo(confo(o4), confo(o10)) = 1 and @nonoverlap_oo(confo(o4), confo(o11)) = 1 and @nonoverlap_oo(confo(o4), confo(o12)) = 1 and @nonoverlap_oo(confo(o4), confo(o13)) = 1 and @nonoverlap_oo(confo(o4), confo(o14)) = 1 and @nonoverlap_oo(confo(o4), confo(o15)) = 1 and @nonoverlap_oo(confo(o4), confo(o16)) = 1 and @nonoverlap_oo(confo(o4), confo(o17)) = 1 and @nonoverlap_oo(confo(o4), confo(o18)) = 1 and @nonoverlap_oo(confo(o4), confo(o19)) = 1 and @nonoverlap_oo(confo(o4), confo(o20)) = 1 and @nonoverlap_oo(confo(o4), confo(o21)) = 1 and @nonoverlap_oo(confo(o4), confo(o22)) = 1 and @nonoverlap_oo(confo(o4), confo(o23)) = 1 and @nonoverlap_oo(confo(o4), confo(o24)) = 1 and @nonoverlap_oo(confo(o4), confo(o25)) = 1 and @nonoverlap_oo(confo(o4), confo(o26)) = 1 and @nonoverlap_oo(confo(o4), confo(o27)) = 1 and @nonoverlap_oo(confo(o4), confo(o28)) = 1 and @nonoverlap_oo(confo(o4), confo(o29)) = 1 and @nonoverlap_oo(confo(o4), confo(o30)) = 1 and @nonoverlap_oo(confo(o4), confo(o31)) = 1 and @nonoverlap_oo(confo(o4), confo(o32)) = 1 and @nonoverlap_oo(confo(o4), confo(o33)) = 1 and @nonoverlap_oo(confo(o4), confo(o34)) = 1 and @nonoverlap_oo(confo(o4), confo(o35)) = 1 and @nonoverlap_oo(confo(o4), confo(o36)) = 1 and @nonoverlap_oo(confo(o4), confo(o37)) = 1 and @nonoverlap_oo(confo(o4), confo(o38)) = 1 and @nonoverlap_oo(confo(o4), confo(o39)) = 1 and @nonoverlap_oo(confo(o4), confo(o40)) = 1 and @nonoverlap_oo(confo(o5), confo(o6)) = 1 and @nonoverlap_oo(confo(o5), confo(o7)) = 1 and @nonoverlap_oo(confo(o5), confo(o8)) = 1 and @nonoverlap_oo(confo(o5), confo(o9)) = 1 and @nonoverlap_oo(confo(o5), confo(o10)) = 1 and @nonoverlap_oo(confo(o5), confo(o11)) = 1 and @nonoverlap_oo(confo(o5), confo(o12)) = 1 and @nonoverlap_oo(confo(o5), confo(o13)) = 1 and @nonoverlap_oo(confo(o5), confo(o14)) = 1 and @nonoverlap_oo(confo(o5), confo(o15)) = 1 and @nonoverlap_oo(confo(o5), confo(o16)) = 1 and @nonoverlap_oo(confo(o5), confo(o17)) = 1 and @nonoverlap_oo(confo(o5), confo(o18)) = 1 and @nonoverlap_oo(confo(o5), confo(o19)) = 1 and @nonoverlap_oo(confo(o5), confo(o20)) = 1 and @nonoverlap_oo(confo(o5), confo(o21)) = 1 and @nonoverlap_oo(confo(o5), confo(o22)) = 1 and @nonoverlap_oo(confo(o5), confo(o23)) = 1 and @nonoverlap_oo(confo(o5), confo(o24)) = 1 and @nonoverlap_oo(confo(o5), confo(o25)) = 1 and @nonoverlap_oo(confo(o5), confo(o26)) = 1 and @nonoverlap_oo(confo(o5), confo(o27)) = 1 and @nonoverlap_oo(confo(o5), confo(o28)) = 1 and @nonoverlap_oo(confo(o5), confo(o29)) = 1 and @nonoverlap_oo(confo(o5), confo(o30)) = 1 and @nonoverlap_oo(confo(o5), confo(o31)) = 1 and @nonoverlap_oo(confo(o5), confo(o32)) = 1 and @nonoverlap_oo(confo(o5), confo(o33)) = 1 and @nonoverlap_oo(confo(o5), confo(o34)) = 1 and @nonoverlap_oo(confo(o5), confo(o35)) = 1 and @nonoverlap_oo(confo(o5), confo(o36)) = 1 and @nonoverlap_oo(confo(o5), confo(o37)) = 1 and @nonoverlap_oo(confo(o5), confo(o38)) = 1 and @nonoverlap_oo(confo(o5), confo(o39)) = 1 and @nonoverlap_oo(confo(o5), confo(o40)) = 1 and @nonoverlap_oo(confo(o6), confo(o7)) = 1 and @nonoverlap_oo(confo(o6), confo(o8)) = 1 and @nonoverlap_oo(confo(o6), confo(o9)) = 1 and @nonoverlap_oo(confo(o6), confo(o10)) = 1 and @nonoverlap_oo(confo(o6), confo(o11)) = 1 and @nonoverlap_oo(confo(o6), confo(o12)) = 1 and @nonoverlap_oo(confo(o6), confo(o13)) = 1 and @nonoverlap_oo(confo(o6), confo(o14)) = 1 and @nonoverlap_oo(confo(o6), confo(o15)) = 1 and @nonoverlap_oo(confo(o6), confo(o16)) = 1 and @nonoverlap_oo(confo(o6), confo(o17)) = 1 and @nonoverlap_oo(confo(o6), confo(o18)) = 1 and @nonoverlap_oo(confo(o6), confo(o19)) = 1 and @nonoverlap_oo(confo(o6), confo(o20)) = 1 and @nonoverlap_oo(confo(o6), confo(o21)) = 1 and @nonoverlap_oo(confo(o6), confo(o22)) = 1 and @nonoverlap_oo(confo(o6), confo(o23)) = 1 and @nonoverlap_oo(confo(o6), confo(o24)) = 1 and @nonoverlap_oo(confo(o6), confo(o25)) = 1 and @nonoverlap_oo(confo(o6), confo(o26)) = 1 and @nonoverlap_oo(confo(o6), confo(o27)) = 1 and @nonoverlap_oo(confo(o6), confo(o28)) = 1 and @nonoverlap_oo(confo(o6), confo(o29)) = 1 and @nonoverlap_oo(confo(o6), confo(o30)) = 1 and @nonoverlap_oo(confo(o6), confo(o31)) = 1 and @nonoverlap_oo(confo(o6), confo(o32)) = 1 and @nonoverlap_oo(confo(o6), confo(o33)) = 1 and @nonoverlap_oo(confo(o6), confo(o34)) = 1 and @nonoverlap_oo(confo(o6), confo(o35)) = 1 and @nonoverlap_oo(confo(o6), confo(o36)) = 1 and @nonoverlap_oo(confo(o6), confo(o37)) = 1 and @nonoverlap_oo(confo(o6), confo(o38)) = 1 and @nonoverlap_oo(confo(o6), confo(o39)) = 1 and @nonoverlap_oo(confo(o6), confo(o40)) = 1 and @nonoverlap_oo(confo(o7), confo(o8)) = 1 and @nonoverlap_oo(confo(o7), confo(o9)) = 1 and @nonoverlap_oo(confo(o7), confo(o10)) = 1 and @nonoverlap_oo(confo(o7), confo(o11)) = 1 and @nonoverlap_oo(confo(o7), confo(o12)) = 1 and @nonoverlap_oo(confo(o7), confo(o13)) = 1 and @nonoverlap_oo(confo(o7), confo(o14)) = 1 and @nonoverlap_oo(confo(o7), confo(o15)) = 1 and @nonoverlap_oo(confo(o7), confo(o16)) = 1 and @nonoverlap_oo(confo(o7), confo(o17)) = 1 and @nonoverlap_oo(confo(o7), confo(o18)) = 1 and @nonoverlap_oo(confo(o7), confo(o19)) = 1 and @nonoverlap_oo(confo(o7), confo(o20)) = 1 and @nonoverlap_oo(confo(o7), confo(o21)) = 1 and @nonoverlap_oo(confo(o7), confo(o22)) = 1 and @nonoverlap_oo(confo(o7), confo(o23)) = 1 and @nonoverlap_oo(confo(o7), confo(o24)) = 1 and @nonoverlap_oo(confo(o7), confo(o25)) = 1 and @nonoverlap_oo(confo(o7), confo(o26)) = 1 and @nonoverlap_oo(confo(o7), confo(o27)) = 1 and @nonoverlap_oo(confo(o7), confo(o28)) = 1 and @nonoverlap_oo(confo(o7), confo(o29)) = 1 and @nonoverlap_oo(confo(o7), confo(o30)) = 1 and @nonoverlap_oo(confo(o7), confo(o31)) = 1 and @nonoverlap_oo(confo(o7), confo(o32)) = 1 and @nonoverlap_oo(confo(o7), confo(o33)) = 1 and @nonoverlap_oo(confo(o7), confo(o34)) = 1 and @nonoverlap_oo(confo(o7), confo(o35)) = 1 and @nonoverlap_oo(confo(o7), confo(o36)) = 1 and @nonoverlap_oo(confo(o7), confo(o37)) = 1 and @nonoverlap_oo(confo(o7), confo(o38)) = 1 and @nonoverlap_oo(confo(o7), confo(o39)) = 1 and @nonoverlap_oo(confo(o7), confo(o40)) = 1 and @nonoverlap_oo(confo(o8), confo(o9)) = 1 and @nonoverlap_oo(confo(o8), confo(o10)) = 1 and @nonoverlap_oo(confo(o8), confo(o11)) = 1 and @nonoverlap_oo(confo(o8), confo(o12)) = 1 and @nonoverlap_oo(confo(o8), confo(o13)) = 1 and @nonoverlap_oo(confo(o8), confo(o14)) = 1 and @nonoverlap_oo(confo(o8), confo(o15)) = 1 and @nonoverlap_oo(confo(o8), confo(o16)) = 1 and @nonoverlap_oo(confo(o8), confo(o17)) = 1 and @nonoverlap_oo(confo(o8), confo(o18)) = 1 and @nonoverlap_oo(confo(o8), confo(o19)) = 1 and @nonoverlap_oo(confo(o8), confo(o20)) = 1 and @nonoverlap_oo(confo(o8), confo(o21)) = 1 and @nonoverlap_oo(confo(o8), confo(o22)) = 1 and @nonoverlap_oo(confo(o8), confo(o23)) = 1 and @nonoverlap_oo(confo(o8), confo(o24)) = 1 and @nonoverlap_oo(confo(o8), confo(o25)) = 1 and @nonoverlap_oo(confo(o8), confo(o26)) = 1 and @nonoverlap_oo(confo(o8), confo(o27)) = 1 and @nonoverlap_oo(confo(o8), confo(o28)) = 1 and @nonoverlap_oo(confo(o8), confo(o29)) = 1 and @nonoverlap_oo(confo(o8), confo(o30)) = 1 and @nonoverlap_oo(confo(o8), confo(o31)) = 1 and @nonoverlap_oo(confo(o8), confo(o32)) = 1 and @nonoverlap_oo(confo(o8), confo(o33)) = 1 and @nonoverlap_oo(confo(o8), confo(o34)) = 1 and @nonoverlap_oo(confo(o8), confo(o35)) = 1 and @nonoverlap_oo(confo(o8), confo(o36)) = 1 and @nonoverlap_oo(confo(o8), confo(o37)) = 1 and @nonoverlap_oo(confo(o8), confo(o38)) = 1 and @nonoverlap_oo(confo(o8), confo(o39)) = 1 and @nonoverlap_oo(confo(o8), confo(o40)) = 1 and @nonoverlap_oo(confo(o9), confo(o10)) = 1 and @nonoverlap_oo(confo(o9), confo(o11)) = 1 and @nonoverlap_oo(confo(o9), confo(o12)) = 1 and @nonoverlap_oo(confo(o9), confo(o13)) = 1 and @nonoverlap_oo(confo(o9), confo(o14)) = 1 and @nonoverlap_oo(confo(o9), confo(o15)) = 1 and @nonoverlap_oo(confo(o9), confo(o16)) = 1 and @nonoverlap_oo(confo(o9), confo(o17)) = 1 and @nonoverlap_oo(confo(o9), confo(o18)) = 1 and @nonoverlap_oo(confo(o9), confo(o19)) = 1 and @nonoverlap_oo(confo(o9), confo(o20)) = 1 and @nonoverlap_oo(confo(o9), confo(o21)) = 1 and @nonoverlap_oo(confo(o9), confo(o22)) = 1 and @nonoverlap_oo(confo(o9), confo(o23)) = 1 and @nonoverlap_oo(confo(o9), confo(o24)) = 1 and @nonoverlap_oo(confo(o9), confo(o25)) = 1 and @nonoverlap_oo(confo(o9), confo(o26)) = 1 and @nonoverlap_oo(confo(o9), confo(o27)) = 1 and @nonoverlap_oo(confo(o9), confo(o28)) = 1 and @nonoverlap_oo(confo(o9), confo(o29)) = 1 and @nonoverlap_oo(confo(o9), confo(o30)) = 1 and @nonoverlap_oo(confo(o9), confo(o31)) = 1 and @nonoverlap_oo(confo(o9), confo(o32)) = 1 and @nonoverlap_oo(confo(o9), confo(o33)) = 1 and @nonoverlap_oo(confo(o9), confo(o34)) = 1 and @nonoverlap_oo(confo(o9), confo(o35)) = 1 and @nonoverlap_oo(confo(o9), confo(o36)) = 1 and @nonoverlap_oo(confo(o9), confo(o37)) = 1 and @nonoverlap_oo(confo(o9), confo(o38)) = 1 and @nonoverlap_oo(confo(o9), confo(o39)) = 1 and @nonoverlap_oo(confo(o9), confo(o40)) = 1 and @nonoverlap_oo(confo(o10), confo(o11)) = 1 and @nonoverlap_oo(confo(o10), confo(o12)) = 1 and @nonoverlap_oo(confo(o10), confo(o13)) = 1 and @nonoverlap_oo(confo(o10), confo(o14)) = 1 and @nonoverlap_oo(confo(o10), confo(o15)) = 1 and @nonoverlap_oo(confo(o10), confo(o16)) = 1 and @nonoverlap_oo(confo(o10), confo(o17)) = 1 and @nonoverlap_oo(confo(o10), confo(o18)) = 1 and @nonoverlap_oo(confo(o10), confo(o19)) = 1 and @nonoverlap_oo(confo(o10), confo(o20)) = 1 and @nonoverlap_oo(confo(o10), confo(o21)) = 1 and @nonoverlap_oo(confo(o10), confo(o22)) = 1 and @nonoverlap_oo(confo(o10), confo(o23)) = 1 and @nonoverlap_oo(confo(o10), confo(o24)) = 1 and @nonoverlap_oo(confo(o10), confo(o25)) = 1 and @nonoverlap_oo(confo(o10), confo(o26)) = 1 and @nonoverlap_oo(confo(o10), confo(o27)) = 1 and @nonoverlap_oo(confo(o10), confo(o28)) = 1 and @nonoverlap_oo(confo(o10), confo(o29)) = 1 and @nonoverlap_oo(confo(o10), confo(o30)) = 1 and @nonoverlap_oo(confo(o10), confo(o31)) = 1 and @nonoverlap_oo(confo(o10), confo(o32)) = 1 and @nonoverlap_oo(confo(o10), confo(o33)) = 1 and @nonoverlap_oo(confo(o10), confo(o34)) = 1 and @nonoverlap_oo(confo(o10), confo(o35)) = 1 and @nonoverlap_oo(confo(o10), confo(o36)) = 1 and @nonoverlap_oo(confo(o10), confo(o37)) = 1 and @nonoverlap_oo(confo(o10), confo(o38)) = 1 and @nonoverlap_oo(confo(o10), confo(o39)) = 1 and @nonoverlap_oo(confo(o10), confo(o40)) = 1 and @nonoverlap_oo(confo(o11), confo(o12)) = 1 and @nonoverlap_oo(confo(o11), confo(o13)) = 1 and @nonoverlap_oo(confo(o11), confo(o14)) = 1 and @nonoverlap_oo(confo(o11), confo(o15)) = 1 and @nonoverlap_oo(confo(o11), confo(o16)) = 1 and @nonoverlap_oo(confo(o11), confo(o17)) = 1 and @nonoverlap_oo(confo(o11), confo(o18)) = 1 and @nonoverlap_oo(confo(o11), confo(o19)) = 1 and @nonoverlap_oo(confo(o11), confo(o20)) = 1 and @nonoverlap_oo(confo(o11), confo(o21)) = 1 and @nonoverlap_oo(confo(o11), confo(o22)) = 1 and @nonoverlap_oo(confo(o11), confo(o23)) = 1 and @nonoverlap_oo(confo(o11), confo(o24)) = 1 and @nonoverlap_oo(confo(o11), confo(o25)) = 1 and @nonoverlap_oo(confo(o11), confo(o26)) = 1 and @nonoverlap_oo(confo(o11), confo(o27)) = 1 and @nonoverlap_oo(confo(o11), confo(o28)) = 1 and @nonoverlap_oo(confo(o11), confo(o29)) = 1 and @nonoverlap_oo(confo(o11), confo(o30)) = 1 and @nonoverlap_oo(confo(o11), confo(o31)) = 1 and @nonoverlap_oo(confo(o11), confo(o32)) = 1 and @nonoverlap_oo(confo(o11), confo(o33)) = 1 and @nonoverlap_oo(confo(o11), confo(o34)) = 1 and @nonoverlap_oo(confo(o11), confo(o35)) = 1 and @nonoverlap_oo(confo(o11), confo(o36)) = 1 and @nonoverlap_oo(confo(o11), confo(o37)) = 1 and @nonoverlap_oo(confo(o11), confo(o38)) = 1 and @nonoverlap_oo(confo(o11), confo(o39)) = 1 and @nonoverlap_oo(confo(o11), confo(o40)) = 1 and @nonoverlap_oo(confo(o12), confo(o13)) = 1 and @nonoverlap_oo(confo(o12), confo(o14)) = 1 and @nonoverlap_oo(confo(o12), confo(o15)) = 1 and @nonoverlap_oo(confo(o12), confo(o16)) = 1 and @nonoverlap_oo(confo(o12), confo(o17)) = 1 and @nonoverlap_oo(confo(o12), confo(o18)) = 1 and @nonoverlap_oo(confo(o12), confo(o19)) = 1 and @nonoverlap_oo(confo(o12), confo(o20)) = 1 and @nonoverlap_oo(confo(o12), confo(o21)) = 1 and @nonoverlap_oo(confo(o12), confo(o22)) = 1 and @nonoverlap_oo(confo(o12), confo(o23)) = 1 and @nonoverlap_oo(confo(o12), confo(o24)) = 1 and @nonoverlap_oo(confo(o12), confo(o25)) = 1 and @nonoverlap_oo(confo(o12), confo(o26)) = 1 and @nonoverlap_oo(confo(o12), confo(o27)) = 1 and @nonoverlap_oo(confo(o12), confo(o28)) = 1 and @nonoverlap_oo(confo(o12), confo(o29)) = 1 and @nonoverlap_oo(confo(o12), confo(o30)) = 1 and @nonoverlap_oo(confo(o12), confo(o31)) = 1 and @nonoverlap_oo(confo(o12), confo(o32)) = 1 and @nonoverlap_oo(confo(o12), confo(o33)) = 1 and @nonoverlap_oo(confo(o12), confo(o34)) = 1 and @nonoverlap_oo(confo(o12), confo(o35)) = 1 and @nonoverlap_oo(confo(o12), confo(o36)) = 1 and @nonoverlap_oo(confo(o12), confo(o37)) = 1 and @nonoverlap_oo(confo(o12), confo(o38)) = 1 and @nonoverlap_oo(confo(o12), confo(o39)) = 1 and @nonoverlap_oo(confo(o12), confo(o40)) = 1 and @nonoverlap_oo(confo(o13), confo(o14)) = 1 and @nonoverlap_oo(confo(o13), confo(o15)) = 1 and @nonoverlap_oo(confo(o13), confo(o16)) = 1 and @nonoverlap_oo(confo(o13), confo(o17)) = 1 and @nonoverlap_oo(confo(o13), confo(o18)) = 1 and @nonoverlap_oo(confo(o13), confo(o19)) = 1 and @nonoverlap_oo(confo(o13), confo(o20)) = 1 and @nonoverlap_oo(confo(o13), confo(o21)) = 1 and @nonoverlap_oo(confo(o13), confo(o22)) = 1 and @nonoverlap_oo(confo(o13), confo(o23)) = 1 and @nonoverlap_oo(confo(o13), confo(o24)) = 1 and @nonoverlap_oo(confo(o13), confo(o25)) = 1 and @nonoverlap_oo(confo(o13), confo(o26)) = 1 and @nonoverlap_oo(confo(o13), confo(o27)) = 1 and @nonoverlap_oo(confo(o13), confo(o28)) = 1 and @nonoverlap_oo(confo(o13), confo(o29)) = 1 and @nonoverlap_oo(confo(o13), confo(o30)) = 1 and @nonoverlap_oo(confo(o13), confo(o31)) = 1 and @nonoverlap_oo(confo(o13), confo(o32)) = 1 and @nonoverlap_oo(confo(o13), confo(o33)) = 1 and @nonoverlap_oo(confo(o13), confo(o34)) = 1 and @nonoverlap_oo(confo(o13), confo(o35)) = 1 and @nonoverlap_oo(confo(o13), confo(o36)) = 1 and @nonoverlap_oo(confo(o13), confo(o37)) = 1 and @nonoverlap_oo(confo(o13), confo(o38)) = 1 and @nonoverlap_oo(confo(o13), confo(o39)) = 1 and @nonoverlap_oo(confo(o13), confo(o40)) = 1 and @nonoverlap_oo(confo(o14), confo(o15)) = 1 and @nonoverlap_oo(confo(o14), confo(o16)) = 1 and @nonoverlap_oo(confo(o14), confo(o17)) = 1 and @nonoverlap_oo(confo(o14), confo(o18)) = 1 and @nonoverlap_oo(confo(o14), confo(o19)) = 1 and @nonoverlap_oo(confo(o14), confo(o20)) = 1 and @nonoverlap_oo(confo(o14), confo(o21)) = 1 and @nonoverlap_oo(confo(o14), confo(o22)) = 1 and @nonoverlap_oo(confo(o14), confo(o23)) = 1 and @nonoverlap_oo(confo(o14), confo(o24)) = 1 and @nonoverlap_oo(confo(o14), confo(o25)) = 1 and @nonoverlap_oo(confo(o14), confo(o26)) = 1 and @nonoverlap_oo(confo(o14), confo(o27)) = 1 and @nonoverlap_oo(confo(o14), confo(o28)) = 1 and @nonoverlap_oo(confo(o14), confo(o29)) = 1 and @nonoverlap_oo(confo(o14), confo(o30)) = 1 and @nonoverlap_oo(confo(o14), confo(o31)) = 1 and @nonoverlap_oo(confo(o14), confo(o32)) = 1 and @nonoverlap_oo(confo(o14), confo(o33)) = 1 and @nonoverlap_oo(confo(o14), confo(o34)) = 1 and @nonoverlap_oo(confo(o14), confo(o35)) = 1 and @nonoverlap_oo(confo(o14), confo(o36)) = 1 and @nonoverlap_oo(confo(o14), confo(o37)) = 1 and @nonoverlap_oo(confo(o14), confo(o38)) = 1 and @nonoverlap_oo(confo(o14), confo(o39)) = 1 and @nonoverlap_oo(confo(o14), confo(o40)) = 1 and @nonoverlap_oo(confo(o15), confo(o16)) = 1 and @nonoverlap_oo(confo(o15), confo(o17)) = 1 and @nonoverlap_oo(confo(o15), confo(o18)) = 1 and @nonoverlap_oo(confo(o15), confo(o19)) = 1 and @nonoverlap_oo(confo(o15), confo(o20)) = 1 and @nonoverlap_oo(confo(o15), confo(o21)) = 1 and @nonoverlap_oo(confo(o15), confo(o22)) = 1 and @nonoverlap_oo(confo(o15), confo(o23)) = 1 and @nonoverlap_oo(confo(o15), confo(o24)) = 1 and @nonoverlap_oo(confo(o15), confo(o25)) = 1 and @nonoverlap_oo(confo(o15), confo(o26)) = 1 and @nonoverlap_oo(confo(o15), confo(o27)) = 1 and @nonoverlap_oo(confo(o15), confo(o28)) = 1 and @nonoverlap_oo(confo(o15), confo(o29)) = 1 and @nonoverlap_oo(confo(o15), confo(o30)) = 1 and @nonoverlap_oo(confo(o15), confo(o31)) = 1 and @nonoverlap_oo(confo(o15), confo(o32)) = 1 and @nonoverlap_oo(confo(o15), confo(o33)) = 1 and @nonoverlap_oo(confo(o15), confo(o34)) = 1 and @nonoverlap_oo(confo(o15), confo(o35)) = 1 and @nonoverlap_oo(confo(o15), confo(o36)) = 1 and @nonoverlap_oo(confo(o15), confo(o37)) = 1 and @nonoverlap_oo(confo(o15), confo(o38)) = 1 and @nonoverlap_oo(confo(o15), confo(o39)) = 1 and @nonoverlap_oo(confo(o15), confo(o40)) = 1 and @nonoverlap_oo(confo(o16), confo(o17)) = 1 and @nonoverlap_oo(confo(o16), confo(o18)) = 1 and @nonoverlap_oo(confo(o16), confo(o19)) = 1 and @nonoverlap_oo(confo(o16), confo(o20)) = 1 and @nonoverlap_oo(confo(o16), confo(o21)) = 1 and @nonoverlap_oo(confo(o16), confo(o22)) = 1 and @nonoverlap_oo(confo(o16), confo(o23)) = 1 and @nonoverlap_oo(confo(o16), confo(o24)) = 1 and @nonoverlap_oo(confo(o16), confo(o25)) = 1 and @nonoverlap_oo(confo(o16), confo(o26)) = 1 and @nonoverlap_oo(confo(o16), confo(o27)) = 1 and @nonoverlap_oo(confo(o16), confo(o28)) = 1 and @nonoverlap_oo(confo(o16), confo(o29)) = 1 and @nonoverlap_oo(confo(o16), confo(o30)) = 1 and @nonoverlap_oo(confo(o16), confo(o31)) = 1 and @nonoverlap_oo(confo(o16), confo(o32)) = 1 and @nonoverlap_oo(confo(o16), confo(o33)) = 1 and @nonoverlap_oo(confo(o16), confo(o34)) = 1 and @nonoverlap_oo(confo(o16), confo(o35)) = 1 and @nonoverlap_oo(confo(o16), confo(o36)) = 1 and @nonoverlap_oo(confo(o16), confo(o37)) = 1 and @nonoverlap_oo(confo(o16), confo(o38)) = 1 and @nonoverlap_oo(confo(o16), confo(o39)) = 1 and @nonoverlap_oo(confo(o16), confo(o40)) = 1 and @nonoverlap_oo(confo(o17), confo(o18)) = 1 and @nonoverlap_oo(confo(o17), confo(o19)) = 1 and @nonoverlap_oo(confo(o17), confo(o20)) = 1 and @nonoverlap_oo(confo(o17), confo(o21)) = 1 and @nonoverlap_oo(confo(o17), confo(o22)) = 1 and @nonoverlap_oo(confo(o17), confo(o23)) = 1 and @nonoverlap_oo(confo(o17), confo(o24)) = 1 and @nonoverlap_oo(confo(o17), confo(o25)) = 1 and @nonoverlap_oo(confo(o17), confo(o26)) = 1 and @nonoverlap_oo(confo(o17), confo(o27)) = 1 and @nonoverlap_oo(confo(o17), confo(o28)) = 1 and @nonoverlap_oo(confo(o17), confo(o29)) = 1 and @nonoverlap_oo(confo(o17), confo(o30)) = 1 and @nonoverlap_oo(confo(o17), confo(o31)) = 1 and @nonoverlap_oo(confo(o17), confo(o32)) = 1 and @nonoverlap_oo(confo(o17), confo(o33)) = 1 and @nonoverlap_oo(confo(o17), confo(o34)) = 1 and @nonoverlap_oo(confo(o17), confo(o35)) = 1 and @nonoverlap_oo(confo(o17), confo(o36)) = 1 and @nonoverlap_oo(confo(o17), confo(o37)) = 1 and @nonoverlap_oo(confo(o17), confo(o38)) = 1 and @nonoverlap_oo(confo(o17), confo(o39)) = 1 and @nonoverlap_oo(confo(o17), confo(o40)) = 1 and @nonoverlap_oo(confo(o18), confo(o19)) = 1 and @nonoverlap_oo(confo(o18), confo(o20)) = 1 and @nonoverlap_oo(confo(o18), confo(o21)) = 1 and @nonoverlap_oo(confo(o18), confo(o22)) = 1 and @nonoverlap_oo(confo(o18), confo(o23)) = 1 and @nonoverlap_oo(confo(o18), confo(o24)) = 1 and @nonoverlap_oo(confo(o18), confo(o25)) = 1 and @nonoverlap_oo(confo(o18), confo(o26)) = 1 and @nonoverlap_oo(confo(o18), confo(o27)) = 1 and @nonoverlap_oo(confo(o18), confo(o28)) = 1 and @nonoverlap_oo(confo(o18), confo(o29)) = 1 and @nonoverlap_oo(confo(o18), confo(o30)) = 1 and @nonoverlap_oo(confo(o18), confo(o31)) = 1 and @nonoverlap_oo(confo(o18), confo(o32)) = 1 and @nonoverlap_oo(confo(o18), confo(o33)) = 1 and @nonoverlap_oo(confo(o18), confo(o34)) = 1 and @nonoverlap_oo(confo(o18), confo(o35)) = 1 and @nonoverlap_oo(confo(o18), confo(o36)) = 1 and @nonoverlap_oo(confo(o18), confo(o37)) = 1 and @nonoverlap_oo(confo(o18), confo(o38)) = 1 and @nonoverlap_oo(confo(o18), confo(o39)) = 1 and @nonoverlap_oo(confo(o18), confo(o40)) = 1 and @nonoverlap_oo(confo(o19), confo(o20)) = 1 and @nonoverlap_oo(confo(o19), confo(o21)) = 1 and @nonoverlap_oo(confo(o19), confo(o22)) = 1 and @nonoverlap_oo(confo(o19), confo(o23)) = 1 and @nonoverlap_oo(confo(o19), confo(o24)) = 1 and @nonoverlap_oo(confo(o19), confo(o25)) = 1 and @nonoverlap_oo(confo(o19), confo(o26)) = 1 and @nonoverlap_oo(confo(o19), confo(o27)) = 1 and @nonoverlap_oo(confo(o19), confo(o28)) = 1 and @nonoverlap_oo(confo(o19), confo(o29)) = 1 and @nonoverlap_oo(confo(o19), confo(o30)) = 1 and @nonoverlap_oo(confo(o19), confo(o31)) = 1 and @nonoverlap_oo(confo(o19), confo(o32)) = 1 and @nonoverlap_oo(confo(o19), confo(o33)) = 1 and @nonoverlap_oo(confo(o19), confo(o34)) = 1 and @nonoverlap_oo(confo(o19), confo(o35)) = 1 and @nonoverlap_oo(confo(o19), confo(o36)) = 1 and @nonoverlap_oo(confo(o19), confo(o37)) = 1 and @nonoverlap_oo(confo(o19), confo(o38)) = 1 and @nonoverlap_oo(confo(o19), confo(o39)) = 1 and @nonoverlap_oo(confo(o19), confo(o40)) = 1 and @nonoverlap_oo(confo(o20), confo(o21)) = 1 and @nonoverlap_oo(confo(o20), confo(o22)) = 1 and @nonoverlap_oo(confo(o20), confo(o23)) = 1 and @nonoverlap_oo(confo(o20), confo(o24)) = 1 and @nonoverlap_oo(confo(o20), confo(o25)) = 1 and @nonoverlap_oo(confo(o20), confo(o26)) = 1 and @nonoverlap_oo(confo(o20), confo(o27)) = 1 and @nonoverlap_oo(confo(o20), confo(o28)) = 1 and @nonoverlap_oo(confo(o20), confo(o29)) = 1 and @nonoverlap_oo(confo(o20), confo(o30)) = 1 and @nonoverlap_oo(confo(o20), confo(o31)) = 1 and @nonoverlap_oo(confo(o20), confo(o32)) = 1 and @nonoverlap_oo(confo(o20), confo(o33)) = 1 and @nonoverlap_oo(confo(o20), confo(o34)) = 1 and @nonoverlap_oo(confo(o20), confo(o35)) = 1 and @nonoverlap_oo(confo(o20), confo(o36)) = 1 and @nonoverlap_oo(confo(o20), confo(o37)) = 1 and @nonoverlap_oo(confo(o20), confo(o38)) = 1 and @nonoverlap_oo(confo(o20), confo(o39)) = 1 and @nonoverlap_oo(confo(o20), confo(o40)) = 1 and @nonoverlap_oo(confo(o21), confo(o22)) = 1 and @nonoverlap_oo(confo(o21), confo(o23)) = 1 and @nonoverlap_oo(confo(o21), confo(o24)) = 1 and @nonoverlap_oo(confo(o21), confo(o25)) = 1 and @nonoverlap_oo(confo(o21), confo(o26)) = 1 and @nonoverlap_oo(confo(o21), confo(o27)) = 1 and @nonoverlap_oo(confo(o21), confo(o28)) = 1 and @nonoverlap_oo(confo(o21), confo(o29)) = 1 and @nonoverlap_oo(confo(o21), confo(o30)) = 1 and @nonoverlap_oo(confo(o21), confo(o31)) = 1 and @nonoverlap_oo(confo(o21), confo(o32)) = 1 and @nonoverlap_oo(confo(o21), confo(o33)) = 1 and @nonoverlap_oo(confo(o21), confo(o34)) = 1 and @nonoverlap_oo(confo(o21), confo(o35)) = 1 and @nonoverlap_oo(confo(o21), confo(o36)) = 1 and @nonoverlap_oo(confo(o21), confo(o37)) = 1 and @nonoverlap_oo(confo(o21), confo(o38)) = 1 and @nonoverlap_oo(confo(o21), confo(o39)) = 1 and @nonoverlap_oo(confo(o21), confo(o40)) = 1 and @nonoverlap_oo(confo(o22), confo(o23)) = 1 and @nonoverlap_oo(confo(o22), confo(o24)) = 1 and @nonoverlap_oo(confo(o22), confo(o25)) = 1 and @nonoverlap_oo(confo(o22), confo(o26)) = 1 and @nonoverlap_oo(confo(o22), confo(o27)) = 1 and @nonoverlap_oo(confo(o22), confo(o28)) = 1 and @nonoverlap_oo(confo(o22), confo(o29)) = 1 and @nonoverlap_oo(confo(o22), confo(o30)) = 1 and @nonoverlap_oo(confo(o22), confo(o31)) = 1 and @nonoverlap_oo(confo(o22), confo(o32)) = 1 and @nonoverlap_oo(confo(o22), confo(o33)) = 1 and @nonoverlap_oo(confo(o22), confo(o34)) = 1 and @nonoverlap_oo(confo(o22), confo(o35)) = 1 and @nonoverlap_oo(confo(o22), confo(o36)) = 1 and @nonoverlap_oo(confo(o22), confo(o37)) = 1 and @nonoverlap_oo(confo(o22), confo(o38)) = 1 and @nonoverlap_oo(confo(o22), confo(o39)) = 1 and @nonoverlap_oo(confo(o22), confo(o40)) = 1 and @nonoverlap_oo(confo(o23), confo(o24)) = 1 and @nonoverlap_oo(confo(o23), confo(o25)) = 1 and @nonoverlap_oo(confo(o23), confo(o26)) = 1 and @nonoverlap_oo(confo(o23), confo(o27)) = 1 and @nonoverlap_oo(confo(o23), confo(o28)) = 1 and @nonoverlap_oo(confo(o23), confo(o29)) = 1 and @nonoverlap_oo(confo(o23), confo(o30)) = 1 and @nonoverlap_oo(confo(o23), confo(o31)) = 1 and @nonoverlap_oo(confo(o23), confo(o32)) = 1 and @nonoverlap_oo(confo(o23), confo(o33)) = 1 and @nonoverlap_oo(confo(o23), confo(o34)) = 1 and @nonoverlap_oo(confo(o23), confo(o35)) = 1 and @nonoverlap_oo(confo(o23), confo(o36)) = 1 and @nonoverlap_oo(confo(o23), confo(o37)) = 1 and @nonoverlap_oo(confo(o23), confo(o38)) = 1 and @nonoverlap_oo(confo(o23), confo(o39)) = 1 and @nonoverlap_oo(confo(o23), confo(o40)) = 1 and @nonoverlap_oo(confo(o24), confo(o25)) = 1 and @nonoverlap_oo(confo(o24), confo(o26)) = 1 and @nonoverlap_oo(confo(o24), confo(o27)) = 1 and @nonoverlap_oo(confo(o24), confo(o28)) = 1 and @nonoverlap_oo(confo(o24), confo(o29)) = 1 and @nonoverlap_oo(confo(o24), confo(o30)) = 1 and @nonoverlap_oo(confo(o24), confo(o31)) = 1 and @nonoverlap_oo(confo(o24), confo(o32)) = 1 and @nonoverlap_oo(confo(o24), confo(o33)) = 1 and @nonoverlap_oo(confo(o24), confo(o34)) = 1 and @nonoverlap_oo(confo(o24), confo(o35)) = 1 and @nonoverlap_oo(confo(o24), confo(o36)) = 1 and @nonoverlap_oo(confo(o24), confo(o37)) = 1 and @nonoverlap_oo(confo(o24), confo(o38)) = 1 and @nonoverlap_oo(confo(o24), confo(o39)) = 1 and @nonoverlap_oo(confo(o24), confo(o40)) = 1 and @nonoverlap_oo(confo(o25), confo(o26)) = 1 and @nonoverlap_oo(confo(o25), confo(o27)) = 1 and @nonoverlap_oo(confo(o25), confo(o28)) = 1 and @nonoverlap_oo(confo(o25), confo(o29)) = 1 and @nonoverlap_oo(confo(o25), confo(o30)) = 1 and @nonoverlap_oo(confo(o25), confo(o31)) = 1 and @nonoverlap_oo(confo(o25), confo(o32)) = 1 and @nonoverlap_oo(confo(o25), confo(o33)) = 1 and @nonoverlap_oo(confo(o25), confo(o34)) = 1 and @nonoverlap_oo(confo(o25), confo(o35)) = 1 and @nonoverlap_oo(confo(o25), confo(o36)) = 1 and @nonoverlap_oo(confo(o25), confo(o37)) = 1 and @nonoverlap_oo(confo(o25), confo(o38)) = 1 and @nonoverlap_oo(confo(o25), confo(o39)) = 1 and @nonoverlap_oo(confo(o25), confo(o40)) = 1 and @nonoverlap_oo(confo(o26), confo(o27)) = 1 and @nonoverlap_oo(confo(o26), confo(o28)) = 1 and @nonoverlap_oo(confo(o26), confo(o29)) = 1 and @nonoverlap_oo(confo(o26), confo(o30)) = 1 and @nonoverlap_oo(confo(o26), confo(o31)) = 1 and @nonoverlap_oo(confo(o26), confo(o32)) = 1 and @nonoverlap_oo(confo(o26), confo(o33)) = 1 and @nonoverlap_oo(confo(o26), confo(o34)) = 1 and @nonoverlap_oo(confo(o26), confo(o35)) = 1 and @nonoverlap_oo(confo(o26), confo(o36)) = 1 and @nonoverlap_oo(confo(o26), confo(o37)) = 1 and @nonoverlap_oo(confo(o26), confo(o38)) = 1 and @nonoverlap_oo(confo(o26), confo(o39)) = 1 and @nonoverlap_oo(confo(o26), confo(o40)) = 1 and @nonoverlap_oo(confo(o27), confo(o28)) = 1 and @nonoverlap_oo(confo(o27), confo(o29)) = 1 and @nonoverlap_oo(confo(o27), confo(o30)) = 1 and @nonoverlap_oo(confo(o27), confo(o31)) = 1 and @nonoverlap_oo(confo(o27), confo(o32)) = 1 and @nonoverlap_oo(confo(o27), confo(o33)) = 1 and @nonoverlap_oo(confo(o27), confo(o34)) = 1 and @nonoverlap_oo(confo(o27), confo(o35)) = 1 and @nonoverlap_oo(confo(o27), confo(o36)) = 1 and @nonoverlap_oo(confo(o27), confo(o37)) = 1 and @nonoverlap_oo(confo(o27), confo(o38)) = 1 and @nonoverlap_oo(confo(o27), confo(o39)) = 1 and @nonoverlap_oo(confo(o27), confo(o40)) = 1 and @nonoverlap_oo(confo(o28), confo(o29)) = 1 and @nonoverlap_oo(confo(o28), confo(o30)) = 1 and @nonoverlap_oo(confo(o28), confo(o31)) = 1 and @nonoverlap_oo(confo(o28), confo(o32)) = 1 and @nonoverlap_oo(confo(o28), confo(o33)) = 1 and @nonoverlap_oo(confo(o28), confo(o34)) = 1 and @nonoverlap_oo(confo(o28), confo(o35)) = 1 and @nonoverlap_oo(confo(o28), confo(o36)) = 1 and @nonoverlap_oo(confo(o28), confo(o37)) = 1 and @nonoverlap_oo(confo(o28), confo(o38)) = 1 and @nonoverlap_oo(confo(o28), confo(o39)) = 1 and @nonoverlap_oo(confo(o28), confo(o40)) = 1 and @nonoverlap_oo(confo(o29), confo(o30)) = 1 and @nonoverlap_oo(confo(o29), confo(o31)) = 1 and @nonoverlap_oo(confo(o29), confo(o32)) = 1 and @nonoverlap_oo(confo(o29), confo(o33)) = 1 and @nonoverlap_oo(confo(o29), confo(o34)) = 1 and @nonoverlap_oo(confo(o29), confo(o35)) = 1 and @nonoverlap_oo(confo(o29), confo(o36)) = 1 and @nonoverlap_oo(confo(o29), confo(o37)) = 1 and @nonoverlap_oo(confo(o29), confo(o38)) = 1 and @nonoverlap_oo(confo(o29), confo(o39)) = 1 and @nonoverlap_oo(confo(o29), confo(o40)) = 1 and @nonoverlap_oo(confo(o30), confo(o31)) = 1 and @nonoverlap_oo(confo(o30), confo(o32)) = 1 and @nonoverlap_oo(confo(o30), confo(o33)) = 1 and @nonoverlap_oo(confo(o30), confo(o34)) = 1 and @nonoverlap_oo(confo(o30), confo(o35)) = 1 and @nonoverlap_oo(confo(o30), confo(o36)) = 1 and @nonoverlap_oo(confo(o30), confo(o37)) = 1 and @nonoverlap_oo(confo(o30), confo(o38)) = 1 and @nonoverlap_oo(confo(o30), confo(o39)) = 1 and @nonoverlap_oo(confo(o30), confo(o40)) = 1 and @nonoverlap_oo(confo(o31), confo(o32)) = 1 and @nonoverlap_oo(confo(o31), confo(o33)) = 1 and @nonoverlap_oo(confo(o31), confo(o34)) = 1 and @nonoverlap_oo(confo(o31), confo(o35)) = 1 and @nonoverlap_oo(confo(o31), confo(o36)) = 1 and @nonoverlap_oo(confo(o31), confo(o37)) = 1 and @nonoverlap_oo(confo(o31), confo(o38)) = 1 and @nonoverlap_oo(confo(o31), confo(o39)) = 1 and @nonoverlap_oo(confo(o31), confo(o40)) = 1 and @nonoverlap_oo(confo(o32), confo(o33)) = 1 and @nonoverlap_oo(confo(o32), confo(o34)) = 1 and @nonoverlap_oo(confo(o32), confo(o35)) = 1 and @nonoverlap_oo(confo(o32), confo(o36)) = 1 and @nonoverlap_oo(confo(o32), confo(o37)) = 1 and @nonoverlap_oo(confo(o32), confo(o38)) = 1 and @nonoverlap_oo(confo(o32), confo(o39)) = 1 and @nonoverlap_oo(confo(o32), confo(o40)) = 1 and @nonoverlap_oo(confo(o33), confo(o34)) = 1 and @nonoverlap_oo(confo(o33), confo(o35)) = 1 and @nonoverlap_oo(confo(o33), confo(o36)) = 1 and @nonoverlap_oo(confo(o33), confo(o37)) = 1 and @nonoverlap_oo(confo(o33), confo(o38)) = 1 and @nonoverlap_oo(confo(o33), confo(o39)) = 1 and @nonoverlap_oo(confo(o33), confo(o40)) = 1 and @nonoverlap_oo(confo(o34), confo(o35)) = 1 and @nonoverlap_oo(confo(o34), confo(o36)) = 1 and @nonoverlap_oo(confo(o34), confo(o37)) = 1 and @nonoverlap_oo(confo(o34), confo(o38)) = 1 and @nonoverlap_oo(confo(o34), confo(o39)) = 1 and @nonoverlap_oo(confo(o34), confo(o40)) = 1 and @nonoverlap_oo(confo(o35), confo(o36)) = 1 and @nonoverlap_oo(confo(o35), confo(o37)) = 1 and @nonoverlap_oo(confo(o35), confo(o38)) = 1 and @nonoverlap_oo(confo(o35), confo(o39)) = 1 and @nonoverlap_oo(confo(o35), confo(o40)) = 1 and @nonoverlap_oo(confo(o36), confo(o37)) = 1 and @nonoverlap_oo(confo(o36), confo(o38)) = 1 and @nonoverlap_oo(confo(o36), confo(o39)) = 1 and @nonoverlap_oo(confo(o36), confo(o40)) = 1 and @nonoverlap_oo(confo(o37), confo(o38)) = 1 and @nonoverlap_oo(confo(o37), confo(o39)) = 1 and @nonoverlap_oo(confo(o37), confo(o40)) = 1 and @nonoverlap_oo(confo(o38), confo(o39)) = 1 and @nonoverlap_oo(confo(o38), confo(o40)) = 1 and @nonoverlap_oo(confo(o39), confo(o40)) = 1

Action data
------------------
transition_base(?e: edge)
	Precondition:confa(rob) = ca0 and @source_base(confb(rob), ?0) = 1
	Effects:
		confb(rob) := @target_base(confb(rob), ?0)

transition_arm(?t: trajectory)
	Precondition:@source_arm(confa(rob), ?0) = 1
	Effects:
		confa(rob) := @target_arm(confa(rob), ?0)
		traj(rob) := ?0

grasp-object(?o: object_id)
	Precondition:holding() = no_object and @graspable(confb(rob), confa(rob), confo(?0)) = 1
	Effects:
		holding() := ?0
		confo(?0) := c_held

place-object(?o: object_id)
	Precondition:holding() = ?0 and @placeable(confb(rob), confa(rob)) = 1
	Effects:
		holding() := no_object
		confo(?0) := @placing_pose(confb(rob), confa(rob))


Ground Actions: 0

[INFO][ 0.24130] Planner configuration: 
Action Resolution:	Full
Goal Resolution:	Full
Plan Extraction:	Propositional
Goal CSP Value Selection:	Value with minimum h_max value
Action CSP Value Selection:	Minimum value
Support Priority:	First support found

