{
	"total_time": 17.1171,
	"search_time": 15.853,
	"search_time_alt": 15.85,
	"memory": 58444,
	"generated": 9708,
	"expanded": 4926,
	"evaluated": 9708,
	"gen_per_second": 612.376587,
	"eval_per_second": 612.376587,
	"solved": true,
	"valid": true,
	"out_of_memory": false,
	"plan_length": 10,
	"plan": ["transition_base(e1056)", "transition_arm(t57)", "grasp-object(o12)", "transition_arm(t1055)", "transition_base(e56)", "transition_arm(t18)", "place-object(o12)", "transition_arm(t1018)", "transition_arm(t55)", "grasp-object(o2)"]
}
