{
	"total_time": 205.793,
	"search_time": 61.0198,
	"search_time_alt": 61.02,
	"memory": 430688,
	"generated": 475763,
	"expanded": 155586,
	"evaluated": 475763,
	"gen_per_second": 7796.860840,
	"eval_per_second": 7796.860840,
	"solved": true,
	"valid": true,
	"out_of_memory": false,
	"plan_length": 79,
	"plan": ["transition_arm(t15)", "grasp-object(o34)", "transition_arm(t10013)", "transition_arm(t17)", "place-object(o34)", "transition_arm(t10017)", "transition_arm(t22)", "grasp-object(o44)", "transition_arm(t10021)", "transition_base(e203)", "transition_base(e3)", "transition_arm(t78)", "place-object(o44)", "transition_arm(t10078)", "transition_arm(t29)", "grasp-object(o6)", "transition_arm(t10027)", "transition_base(e9)", "transition_base(e10234)", "transition_base(e233)", "transition_base(e10160)", "transition_arm(t17)", "place-object(o6)", "transition_arm(t10017)", "transition_arm(t62)", "grasp-object(o18)", "transition_arm(t10059)", "transition_arm(t65)", "place-object(o18)", "transition_arm(t10066)", "transition_arm(t88)", "grasp-object(o16)", "transition_arm(t10087)", "transition_base(e162)", "transition_base(e81)", "transition_base(e10182)", "transition_arm(t15)", "place-object(o16)", "transition_arm(t10013)", "transition_base(e182)", "transition_base(e64)", "transition_arm(t44)", "grasp-object(o27)", "transition_arm(t10043)", "transition_base(e10112)", "transition_base(e10099)", "transition_base(e10158)", "transition_arm(t43)", "place-object(o27)", "transition_arm(t10043)", "transition_base(e159)", "transition_base(e81)", "transition_base(e64)", "transition_arm(t60)", "grasp-object(o22)", "transition_arm(t10059)", "transition_arm(t13)", "place-object(o22)", "transition_arm(t10013)", "transition_arm(t90)", "grasp-object(o4)", "transition_arm(t10087)", "transition_base(e204)", "transition_base(e10189)", "transition_arm(t84)", "place-object(o4)", "transition_arm(t10082)", "transition_base(e189)", "transition_base(e36)", "transition_base(e3)", "transition_arm(t69)", "grasp-object(o11)", "transition_arm(t10067)", "transition_base(e11)", "transition_base(e10249)", "transition_base(e248)", "transition_base(e10162)", "transition_arm(t23)", "place-object(o11)"]
}
