96 2.25 -0.6 -3.1416 
101 2.25 -0.1 -3.1416 
102 2.25 -0.1 -2.8798 
103 2.25 -0.1 -2.618 
106 2.25 -0.1 3.14158 
104 2.25 -0.1 2.61798 
105 2.25 -0.1 2.87978 
97 2.25 -0.6 2.35618 
99 2.25 -0.6 2.87978 
98 2.25 -0.6 2.61798 
100 2.25 -0.6 3.14158 
95 2.25 -1.1 2.87978 
94 2.25 -1.1 2.61798 
92 2.25 -1.1 2.09438 
93 2.25 -1.1 2.35618 
78 1.75 0.4 -2.8798 
77 1.75 0.4 -3.1416 
79 1.75 0.4 -2.618 
80 1.75 0.4 -2.3562 
81 1.75 0.4 3.14158 
73 1.75 -0.1 -2.8798 
72 1.75 -0.1 -3.1416 
75 1.75 -0.1 2.87978 
76 1.75 -0.1 3.14158 
74 1.75 -0.1 2.61798 
66 1.75 -0.6 -3.1416 
67 1.75 -0.6 2.09438 
71 1.75 -0.6 3.14158 
70 1.75 -0.6 2.87978 
69 1.75 -0.6 2.61798 
68 1.75 -0.6 2.35618 
88 1.75 1.4 -2.3562 
87 1.75 1.4 -2.618 
90 1.75 1.4 -1.83261 
89 1.75 1.4 -2.0944 
91 1.75 1.4 -1.57081 
85 1.75 0.9 -2.0944 
86 1.75 0.9 -1.83261 
82 1.75 0.9 -2.8798 
83 1.75 0.9 -2.618 
84 1.75 0.9 -2.3562 
118 2.25 0.9 3.14158 
107 2.25 0.4 -3.1416 
109 2.25 0.4 -2.618 
108 2.25 0.4 -2.8798 
110 2.25 0.4 -2.3562 
112 2.25 0.4 3.14158 
111 2.25 0.4 2.87978 
117 2.25 0.9 -2.0944 
113 2.25 0.9 -3.1416 
116 2.25 0.9 -2.3562 
114 2.25 0.9 -2.8798 
115 2.25 0.9 -2.618 
123 2.25 1.4 -1.83261 
122 2.25 1.4 -2.0944 
121 2.25 1.4 -2.3562 
120 2.25 1.4 -2.618 
119 2.25 1.4 -2.8798 
62 1.75 -1.1 1.83258 
63 1.75 -1.1 2.09438 
64 1.75 -1.1 2.35618 
65 1.75 -1.1 2.61798 
55 1.25 -1.1 2.35618 
54 1.25 -1.1 2.09438 
53 1.25 -1.1 1.83258 
52 1.25 -1.1 1.57078 
51 1.25 -1.1 1.30898 
50 0.75 1.4 -1.04721 
48 0.75 1.4 -1.57081 
49 0.75 1.4 -1.30901 
46 0.75 1.4 -2.0944 
47 0.75 1.4 -1.83261 
42 0.75 -1.1 1.04718 
43 0.75 -1.1 1.30898 
44 0.75 -1.1 1.57078 
45 0.75 -1.1 1.83258 
57 1.25 1.4 -2.3562 
61 1.25 1.4 -1.30901 
60 1.25 1.4 -1.57081 
58 1.25 1.4 -2.0944 
59 1.25 1.4 -1.83261 
56 1.25 0.9 -1.83261 
0 0 0 0 
1 -0.25 -1.1 0.261787 
2 -0.25 -1.1 0.523586 
3 -0.25 -1.1 0.785385 
4 -0.25 -1.1 1.04718 
5 -0.25 -1.1 1.30898 
9 -0.25 -0.6 0.785385 
10 -0.25 -0.6 1.04718 
6 -0.25 -0.6 -1.2e-05 
7 -0.25 -0.6 0.261787 
8 -0.25 -0.6 0.523586 
41 0.25 1.4 -0.785409 
40 0.25 1.4 -1.04721 
39 0.25 1.4 -1.30901 
38 0.25 1.4 -1.57081 
36 0.25 0.9 -0.785409 
35 0.25 0.9 -1.04721 
37 0.25 0.9 -0.52361 
33 0.25 0.9 -1.57081 
34 0.25 0.9 -1.30901 
27 -0.25 1.4 -0.52361 
24 -0.25 1.4 -1.30901 
25 -0.25 1.4 -1.04721 
26 -0.25 1.4 -0.785409 
32 0.25 -1.1 1.57078 
31 0.25 -1.1 1.30898 
29 0.25 -1.1 0.785385 
30 0.25 -1.1 1.04718 
28 0.25 -1.1 0.523586 
19 -0.25 0.4 0.261787 
18 -0.25 0.4 -1.2e-05 
17 -0.25 0.4 -0.261811 
15 -0.25 0.4 -0.785409 
16 -0.25 0.4 -0.52361 
23 -0.25 0.9 -0.261811 
20 -0.25 0.9 -1.04721 
22 -0.25 0.9 -0.52361 
21 -0.25 0.9 -0.785409 
12 -0.25 -0.1 -1.2e-05 
11 -0.25 -0.1 -0.261811 
14 -0.25 -0.1 0.523586 
13 -0.25 -0.1 0.261787 
