{
	"total_time": 181.979,
	"search_time": 55.8635,
	"search_time_alt": 55.86,
	"memory": 510324,
	"generated": 649365,
	"expanded": 144444,
	"evaluated": 649365,
	"gen_per_second": 11624.139648,
	"eval_per_second": 11624.139648,
	"solved": true,
	"valid": true,
	"out_of_memory": false,
	"plan_length": 73,
	"plan": ["transition_arm(t61)", "grasp-object(o22)", "transition_arm(t10059)", "transition_arm(t52)", "place-object(o22)", "transition_arm(t10053)", "transition_arm(t91)", "grasp-object(o4)", "transition_arm(t10087)", "transition_base(e204)", "transition_base(e10189)", "transition_arm(t86)", "place-object(o4)", "transition_arm(t10082)", "transition_base(e188)", "transition_base(e64)", "transition_arm(t13)", "grasp-object(o34)", "transition_arm(t10013)", "transition_base(e203)", "transition_base(e3)", "transition_arm(t43)", "place-object(o34)", "transition_arm(t10046)", "transition_arm(t28)", "grasp-object(o6)", "transition_arm(t10027)", "transition_base(e9)", "transition_base(e10243)", "transition_base(e242)", "transition_base(e10160)", "transition_arm(t16)", "place-object(o6)", "transition_arm(t10016)", "transition_arm(t62)", "grasp-object(o18)", "transition_arm(t10059)", "transition_arm(t17)", "place-object(o18)", "transition_arm(t10017)", "transition_arm(t91)", "grasp-object(o16)", "transition_arm(t10087)", "transition_base(e162)", "transition_base(e81)", "transition_base(e10182)", "transition_arm(t15)", "place-object(o16)", "transition_arm(t10013)", "transition_base(e182)", "transition_base(e64)", "transition_arm(t46)", "grasp-object(o27)", "transition_arm(t10043)", "transition_base(e10112)", "transition_base(e10099)", "transition_base(e10158)", "transition_arm(t45)", "place-object(o27)", "transition_arm(t10043)", "transition_base(e159)", "transition_base(e10173)", "transition_base(e174)", "transition_base(e10009)", "transition_arm(t70)", "grasp-object(o11)", "transition_arm(t10067)", "transition_base(e11)", "transition_base(e10249)", "transition_base(e248)", "transition_base(e10162)", "transition_arm(t22)", "place-object(o11)"]
}
