{
	"--COMMENT--": "YOU CAN FIND THE DOCUMENTATION OF THE DIFFERENT CONFIGURATION OPTIONS ON THE MAIN 'README.MD' FILE",
	
	"heuristic": "hff",
	"novelty": "true",
	"plan_extraction": "propositional",
	"evaluation": "eager",
	"precondition_resolution": "full",
	"goal_resolution": "full",
	"goal_value_selection": "min_hmax",
	"action_value_selection": "min_val",
	"support_priority": "first",
	"reachability_analysis": "true",
	"ehc": "false",
	"helpful_actions": "true",
	"early_termination": "true",
	"element_constraint": "false",
	"validate": "true",
	
	"width": {
		"max": 2,
		"features": "all", 
		"use_state_vars": "true",
		"use_goal": "false",
		"use_actions": "false"
	},
	
	
	"use_state_constraints_in_heuristic_goal_evaluation": "true"
}