3 0.5 -0.1 0.7 0 0 0 
1 0.5 -0.4 0.7 0 0 0 
6 0.5 0.35 0.7 0 0 0 
4 0.5 0.05 0.7 0 0 0 
8 0.65 -0.1 0.7 0 0 0 
10 0.65 0.2 0.7 0 0 0 
9 0.65 0.05 0.7 0 0 0 
7 0.65 -0.4 0.7 0 0 0 
5 0.5 0.2 0.7 0 0 0 
2 0.5 -0.25 0.7 0 0 0 
0 -0.34927 -0.0909058 0.0899649 -1.21524 -2.57717 -0.597703 2.83762 
