44 0.72496 -0.00131518 0.763968 0 0 0 
45 0.725076 -0.00189036 0.763907 0 0 0 
25 0.575787 0.0733822 0.762132 0 0 0 
22 0.575229 -0.151319 0.761626 0 0 0 
23 0.575326 -0.075624 0.761544 0 0 0 
24 0.575437 -0.00102441 0.761529 0 0 0 
19 0.574791 -0.301354 0.762291 0 0 0 
21 0.575148 -0.22605 0.761788 0 0 0 
27 0.575904 0.223901 0.762066 0 0 0 
26 0.575741 0.148954 0.761888 0 0 0 
4 0.500414 -0.374966 0.760441 0 0 0 
5 0.499816 -0.375929 0.761111 0 0 0 
14 0.501195 0.298817 0.762236 0 0 0 
8 0.500446 -0.152334 0.761224 0 0 0 
10 0.500966 -0.00262165 0.761757 0 0 0 
11 0.50113 0.0728499 0.761497 0 0 0 
28 0.576271 0.298587 0.763001 0 0 0 
41 0.724248 -0.376499 0.763052 0 0 0 
42 0.724202 -0.301978 0.764222 0 0 0 
43 0.724886 -0.0776871 0.764468 0 0 0 
34 0.648916 -0.300879 0.76345 0 0 0 
36 0.650336 -0.0764319 0.761835 0 0 0 
35 0.6502 -0.151067 0.761846 0 0 0 
39 0.650957 0.14826 0.762545 0 0 0 
37 0.650465 -0.00125183 0.761779 0 0 0 
38 0.650508 0.0744641 0.761259 0 0 0 
40 0.650897 0.223652 0.761749 0 0 0 
33 0.648847 -0.37587 0.764146 0 0 0 
30 0.648857 -0.601702 0.765116 0 0 0 
29 0.648802 -0.601816 0.764889 0 0 0 
32 0.648949 -0.451285 0.763262 0 0 0 
31 0.648938 -0.52638 0.763228 0 0 0 
17 0.574578 -0.451138 0.762358 0 0 0 
18 0.574724 -0.376211 0.761597 0 0 0 
20 0.574944 -0.226494 0.762024 0 0 0 
16 0.574508 -0.526103 0.762007 0 0 0 
15 0.573928 -0.602196 0.761496 0 0 0 
1 0.499943 -0.600033 0.759212 0 0 0 
9 0.500652 -0.0769539 0.761284 0 0 0 
2 0.500655 -0.524229 0.761156 0 0 0 
3 0.500719 -0.449349 0.760615 0 0 0 
7 0.500122 -0.226923 0.761167 0 0 0 
6 0.500251 -0.30066 0.760547 0 0 0 
12 0.500626 0.14921 0.761462 0 0 0 
13 0.500893 0.22408 0.76188 0 0 0 
0 -0.349245 -0.0909038 0.0899653 -1.21524 -2.57717 -0.597703 2.83762 
