{
	"total_time": 29.2618,
	"search_time": 28.3498,
	"search_time_alt": 28.35,
	"memory": 259012,
	"generated": 307443,
	"expanded": 52165,
	"evaluated": 307443,
	"gen_per_second": 10844.637695,
	"eval_per_second": 10844.637695,
	"solved": true,
	"valid": true,
	"out_of_memory": false,
	"plan_length": 36,
	"plan": ["transition_base(e60)", "transition_arm(t58)", "grasp-object(o3)", "transition_arm(t10055)", "transition_arm(t79)", "place-object(o3)", "transition_arm(t10082)", "transition_arm(t16)", "grasp-object(o33)", "transition_arm(t10016)", "transition_base(e10019)", "transition_arm(t120)", "place-object(o33)", "transition_arm(t10120)", "transition_arm(t134)", "grasp-object(o14)", "transition_arm(t10134)", "transition_base(e10007)", "transition_arm(t32)", "place-object(o14)", "transition_arm(t10032)", "transition_arm(t56)", "grasp-object(o25)", "transition_arm(t10056)", "transition_arm(t16)", "place-object(o25)", "transition_arm(t10016)", "transition_base(e4)", "transition_arm(t99)", "grasp-object(o4)", "transition_arm(t10099)", "transition_arm(t12)", "place-object(o4)", "transition_arm(t10010)", "transition_arm(t138)", "grasp-object(o13)"]
}
