[INFO][ 0.02152] Grounding the following action schema with 146 possible bindings:
transition_base(?e: edge)

[INFO][ 0.02280] Grounding the following action schema with 123 possible bindings:
transition_arm(?t: trajectory)

[INFO][ 0.02330] Grounding the following action schema with 25 possible bindings:
grasp-object(?o: object_id)

[INFO][ 0.02349] Grounding the following action schema with 25 possible bindings:
place-object(?o: object_id)

[INFO][ 0.02367] Grounding process stats:
	* 319 grounded actions
	* 0 pruned actions
