37 -2 -3 1.30898 
36 -2 -3 1.04718 
35 -2 -3 0.785385 
34 -2 -3 0.523586 
38 -2 -2 -0.261811 
40 -2 -2 0.261787 
39 -2 -2 -1.2e-05 
41 -2 -2 0.523586 
43 -2 -1 -0.785409 
42 -2 -1 -1.04721 
45 -2 -1 -0.261811 
44 -2 -1 -0.52361 
50 -1 -1 -1.83261 
53 -1 -1 -1.04721 
52 -1 -1 -1.30901 
51 -1 -1 -1.57081 
47 -1 -3 1.57078 
46 -1 -3 1.30898 
49 -1 -3 2.09438 
48 -1 -3 1.83258 
16 0.85 -1 2.09438 
15 0.85 -1 1.83258 
13 0.85 -1 1.30898 
14 0.85 -1 1.57078 
18 0.85 1 -1.57081 
17 0.85 1 -1.83261 
19 0.85 1 -1.30901 
20 0.85 1 -1.04721 
21 1.85 -1 2.09438 
22 1.85 -1 2.35618 
23 1.85 -1 2.61798 
24 1.85 -1 2.87978 
28 1.85 0 2.87978 
29 1.85 0 3.14158 
26 1.85 0 -2.8798 
27 1.85 0 -2.618 
25 1.85 0 -3.1416 
30 1.85 1 -2.618 
31 1.85 1 -2.3562 
32 1.85 1 -2.0944 
33 1.85 1 -1.83261 
0 0 0 0 
64 0 -1 -2.3562 
63 0 -1 -2.618 
66 0 -1 -1.83261 
65 0 -1 -2.0944 
59 0 -2 -2.8798 
60 0 -2 -2.618 
58 0 -2 -3.1416 
61 0 -2 2.87978 
62 0 -2 3.14158 
1 -0.15 -1 0.523586 
2 -0.15 -1 0.785385 
3 -0.15 -1 1.04718 
4 -0.15 -1 1.30898 
54 0 -3 2.09438 
55 0 -3 2.35618 
56 0 -3 2.61798 
57 0 -3 2.87978 
5 -0.15 0 -0.261811 
6 -0.15 0 -1.2e-05 
7 -0.15 0 0.261787 
8 -0.15 0 0.523586 
12 -0.15 1 -0.261811 
9 -0.15 1 -1.04721 
11 -0.15 1 -0.52361 
10 -0.15 1 -0.785409 
