{
	"total_time": 40.8106,
	"search_time": 39.8585,
	"search_time_alt": 39.86,
	"memory": 248576,
	"generated": 241604,
	"expanded": 66157,
	"evaluated": 241604,
	"gen_per_second": 6061.543457,
	"eval_per_second": 6061.543457,
	"solved": true,
	"valid": true,
	"out_of_memory": false,
	"plan_length": 58,
	"plan": ["transition_base(e60)", "transition_arm(t16)", "grasp-object(o33)", "transition_arm(t10016)", "transition_base(e3)", "transition_arm(t144)", "place-object(o33)", "transition_arm(t10143)", "transition_arm(t26)", "grasp-object(o36)", "transition_arm(t10026)", "transition_base(e10016)", "transition_arm(t120)", "place-object(o36)", "transition_arm(t10120)", "transition_arm(t136)", "grasp-object(o14)", "transition_arm(t10134)", "transition_base(e19)", "transition_arm(t81)", "place-object(o14)", "transition_arm(t10080)", "transition_arm(t105)", "grasp-object(o10)", "transition_arm(t10103)", "transition_base(e10015)", "transition_arm(t17)", "place-object(o10)", "transition_arm(t10018)", "transition_base(e15)", "transition_arm(t56)", "grasp-object(o3)", "transition_arm(t10055)", "transition_base(e10004)", "transition_arm(t13)", "place-object(o3)", "transition_arm(t10015)", "transition_arm(t18)", "grasp-object(o10)", "transition_arm(t10018)", "transition_arm(t26)", "place-object(o10)", "transition_arm(t10026)", "transition_arm(t58)", "grasp-object(o25)", "transition_arm(t10057)", "transition_arm(t32)", "place-object(o25)", "transition_arm(t10032)", "transition_base(e4)", "transition_arm(t99)", "grasp-object(o4)", "transition_arm(t10099)", "transition_arm(t10)", "place-object(o4)", "transition_arm(t10011)", "transition_arm(t141)", "grasp-object(o13)"]
}
