0 0 0
0 1 1
0 2 1
0 3 1
0 4 1
0 5 2
0 6 2
0 7 2
0 8 2
0 9 3
0 10 4
0 11 5
0 12 5
0 13 6
0 14 6
0 15 6
0 16 7
0 17 7
0 18 7
0 19 8
0 20 8
0 21 8
0 22 8
0 23 9
0 24 9
0 25 9
0 26 9
0 27 10
0 28 10
0 29 10
0 30 10
0 31 11
0 32 11
0 33 11
0 34 11
0 35 12
0 36 12
0 37 12
0 38 12
0 39 13
0 40 13
0 41 13
0 42 13
1 10001 0
1 10002 0
1 10003 0
1 10004 0
2 10005 0
2 10006 0
2 10007 0
2 10008 0
3 10009 0
4 10010 0
5 10011 0
5 10012 0
6 10013 0
6 10014 0
6 10015 0
7 10016 0
7 10017 0
7 10018 0
8 10019 0
8 10020 0
8 10021 0
8 10022 0
9 10023 0
9 10024 0
9 10025 0
9 10026 0
10 10027 0
10 10028 0
10 10029 0
10 10030 0
11 10031 0
11 10032 0
11 10033 0
11 10034 0
12 10035 0
12 10036 0
12 10037 0
12 10038 0
13 10039 0
13 10040 0
13 10041 0
13 10042 0
