0 1083 9
0 1084 10
0 1085 11
0 1086 12
0 1087 13
0 1088 3
0 1089 4
0 1090 1
0 1091 2
0 1092 5
0 1093 6
9 1094 9
10 1095 8
13 1115 9
14 1113 8
14 1114 9
19 1111 8
19 1112 9
29 1109 13
30 1110 12
31 1108 10
32 1106 8
32 1107 9
34 1105 6
35 1098 12
35 1099 13
35 1100 5
36 1096 11
36 1097 12
37 1089 8
37 1101 9
37 1102 10
37 1103 11
37 1104 2
42 1060 13
42 1061 6
43 1062 11
43 1063 12
43 1064 13
43 1065 6
44 1066 10
44 1067 11
44 1068 12
44 1069 13
45 1070 9
45 1071 10
45 1072 11
45 1073 1
45 1074 2
50 1059 8
53 1057 12
53 1058 13
54 1055 11
54 1056 12
55 1051 9
55 1052 10
55 1053 11
55 1054 2
56 1075 9
56 1076 10
56 1077 11
56 1078 12
56 1079 3
56 1080 4
56 1081 1
56 1082 2
66 1039 8
66 1040 9
66 1041 10
66 1042 11
68 1048 13
68 1049 6
69 1046 12
69 1047 13
70 1043 10
70 1044 11
70 1045 12
71 1039 8
71 1040 9
71 1041 10
71 1042 11
72 1026 9
72 1027 10
72 1028 11
72 1029 12
72 1030 13
73 1017 8
73 1018 9
73 1019 10
73 1020 11
73 1021 12
73 1022 13
73 1023 0
73 1024 1
73 1025 2
74 1036 12
74 1037 13
74 1038 6
75 1031 10
75 1032 11
75 1033 12
75 1034 13
75 1035 6
76 1026 9
76 1027 10
76 1028 11
76 1029 12
76 1030 13
77 1003 12
77 1004 13
78 1000 11
78 1001 12
78 1002 13
79 1005 9
79 1006 10
79 1007 11
79 1008 12
79 1009 2
80 1010 8
80 1011 9
80 1012 10
80 1013 11
80 1014 0
80 1015 1
80 1016 2
81 1003 12
81 1004 13
86 1050 8
