1 0
2 0
3 0
4 1
5 1
6 1
7 1
8 2
9 2
10 2
11 2
12 3
13 3
14 3
15 3
16 4
17 4
18 4
19 5
20 5
21 5
22 5
23 6
24 6
25 6
26 7
27 8
28 8
29 9
30 9
31 9
32 10
33 10
34 10
35 11
36 11
37 11
38 12
39 12
40 13
41 13
42 14
