{
	"total_time": 193.964,
	"search_time": 40.4785,
	"search_time_alt": 40.48,
	"memory": 335984,
	"generated": 345214,
	"expanded": 79867,
	"evaluated": 345214,
	"gen_per_second": 8528.324219,
	"eval_per_second": 8528.324219,
	"solved": true,
	"valid": true,
	"out_of_memory": false,
	"plan_length": 83,
	"plan": ["transition_arm(t34)", "grasp-object(o17)", "transition_arm(t10032)", "transition_arm(t66)", "place-object(o17)", "transition_arm(t10065)", "transition_arm(t55)", "grasp-object(o27)", "transition_arm(t10055)", "transition_arm(t62)", "place-object(o27)", "transition_arm(t10060)", "transition_arm(t86)", "grasp-object(o21)", "transition_arm(t10083)", "transition_arm(t55)", "place-object(o21)", "transition_arm(t10055)", "transition_base(e60)", "transition_arm(t55)", "grasp-object(o3)", "transition_arm(t10055)", "transition_arm(t79)", "place-object(o3)", "transition_arm(t10079)", "transition_arm(t70)", "grasp-object(o25)", "transition_arm(t10067)", "transition_base(e10060)", "transition_arm(t20)", "place-object(o25)", "transition_arm(t10020)", "transition_arm(t59)", "grasp-object(o27)", "transition_arm(t10059)", "transition_arm(t86)", "place-object(o27)", "transition_arm(t10083)", "transition_base(e60)", "transition_arm(t14)", "grasp-object(o33)", "transition_arm(t10013)", "transition_base(e10019)", "transition_arm(t117)", "place-object(o33)", "transition_arm(t10120)", "transition_arm(t136)", "grasp-object(o14)", "transition_arm(t10134)", "transition_base(e10007)", "transition_arm(t16)", "place-object(o14)", "transition_arm(t10016)", "transition_base(e4)", "transition_arm(t99)", "grasp-object(o4)", "transition_arm(t10099)", "transition_base(e10060)", "transition_arm(t81)", "place-object(o4)", "transition_arm(t10079)", "transition_base(e60)", "transition_arm(t138)", "grasp-object(o13)", "transition_arm(t10138)", "transition_base(e10060)", "transition_arm(t60)", "place-object(o13)", "transition_arm(t10060)", "transition_arm(t79)", "grasp-object(o4)", "transition_arm(t10079)", "transition_base(e60)", "transition_arm(t140)", "place-object(o4)", "transition_arm(t10138)", "transition_base(e10060)", "transition_arm(t59)", "grasp-object(o13)", "transition_arm(t10059)", "transition_base(e60)", "transition_arm(t99)", "place-object(o13)"]
}
