{
	"total_time": 374.312,
	"search_time": 371.628,
	"search_time_alt": 371.626,
	"memory": 297584,
	"generated": 631940,
	"expanded": 55086,
	"evaluated": 631940,
	"gen_per_second": 1700.463989,
	"eval_per_second": 1700.463989,
	"solved": true,
	"valid": true,
	"out_of_memory": false,
	"plan_length": 36,
	"plan": ["transition_arm(t20)", "grasp-object(o1)", "transition_arm(t10019)", "transition_base(e63)", "transition_arm(t14)", "place-object()", "transition_arm(t10014)", "transition_base(e10063)", "transition_arm(t56)", "grasp-object(o22)", "transition_arm(t10056)", "transition_base(e63)", "transition_arm(t15)", "place-object()", "transition_arm(t10015)", "transition_base(e10063)", "transition_arm(t53)", "grasp-object(o19)", "transition_arm(t10052)", "transition_arm(t56)", "place-object()", "transition_arm(t10057)", "transition_arm(t8)", "grasp-object(o15)", "transition_arm(t10009)", "transition_arm(t52)", "place-object()", "transition_arm(t10055)", "transition_arm(t57)", "grasp-object(o19)", "transition_arm(t10056)", "transition_arm(t9)", "place-object()", "transition_arm(t10010)", "transition_arm(t83)", "grasp-object(o4)"]
}
