{
	"total_time": 26.98,
	"search_time": 24.844,
	"search_time_alt": 24.8427,
	"memory": 63860,
	"generated": 15766,
	"expanded": 8796,
	"evaluated": 15766,
	"gen_per_second": 634.599915,
	"eval_per_second": 634.599915,
	"solved": true,
	"valid": true,
	"out_of_memory": false,
	"plan_length": 14,
	"plan": ["transition_arm(t20)", "grasp-object(o1)", "transition_arm(t10019)", "transition_arm(t46)", "place-object()", "transition_arm(t10046)", "transition_arm(t59)", "grasp-object(o22)", "transition_arm(t10056)", "transition_arm(t12)", "place-object()", "transition_arm(t10012)", "transition_arm(t84)", "grasp-object(o4)"]
}
