0 0 1
0 1 1
0 2 1
0 3 1
0 4 2
0 5 2
0 6 2
0 7 2
0 8 3
0 9 3
0 10 3
0 11 3
0 12 4
0 13 4
0 14 5
0 15 6
0 16 7
0 17 7
0 18 7
0 19 8
0 20 8
0 21 9
0 22 9
0 23 9
0 24 10
0 25 10
0 26 10
0 27 11
0 28 11
0 29 11
0 30 11
0 31 12
0 32 12
0 33 12
0 34 12
0 35 13
0 36 13
0 37 13
0 38 13
0 39 14
0 40 14
0 41 14
0 42 15
0 43 15
0 44 15
0 45 15
0 46 16
0 47 16
0 48 16
0 49 17
0 50 17
0 51 17
0 52 17
0 53 18
0 54 18
0 55 18
0 56 18
0 57 19
0 58 19
0 59 19
0 60 19
0 61 20
0 62 20
0 63 20
0 64 20
0 65 21
0 66 21
0 67 22
0 68 22
0 69 22
0 70 23
0 71 23
0 72 23
1 1000 0
1 1001 0
1 1002 0
1 1003 0
2 1004 0
2 1005 0
2 1006 0
2 1007 0
3 1008 0
3 1009 0
3 1010 0
3 1011 0
4 1012 0
4 1013 0
5 1014 0
6 1015 0
7 1016 0
7 1017 0
7 1018 0
8 1019 0
8 1020 0
9 1021 0
9 1022 0
9 1023 0
10 1024 0
10 1025 0
10 1026 0
11 1027 0
11 1028 0
11 1029 0
11 1030 0
12 1031 0
12 1032 0
12 1033 0
12 1034 0
13 1035 0
13 1036 0
13 1037 0
13 1038 0
14 1039 0
14 1040 0
14 1041 0
15 1042 0
15 1043 0
15 1044 0
15 1045 0
16 1046 0
16 1047 0
16 1048 0
17 1049 0
17 1050 0
17 1051 0
17 1052 0
18 1053 0
18 1054 0
18 1055 0
18 1056 0
19 1057 0
19 1058 0
19 1059 0
19 1060 0
20 1061 0
20 1062 0
20 1063 0
20 1064 0
21 1065 0
21 1066 0
22 1067 0
22 1068 0
22 1069 0
23 1070 0
23 1071 0
23 1072 0
