54 0.79378 0.154663 0.679889 
73 0.798376 -0.0313163 0.680014 
34 0.817101 0.286486 0.680004 
85 0.798179 0.0458273 0.680014 
21 0.798 0.245048 0.679889 
61 0.945373 -0.398745 0.680006 
2 0.940619 0.21401 0.680011 
51 0.945536 -0.00088117 0.679884 
44 0.945445 -0.098499 0.679884 
50 0.945644 -0.199879 0.680001 
37 0.946295 0.300954 0.679889 
40 0.946231 0.200443 0.680018 
58 0.946988 0.104703 0.680001 
56 0.945599 -0.299025 0.679898 
72 0.953555 0.410313 0.679889 
55 0.755544 0.100206 0.679895 
49 0.755035 -0.000838294 0.680016 
69 0.772293 0.0657303 0.680013 
53 0.997165 -0.391524 0.679897 
30 0.990238 -0.21982 0.679903 
7 0.990856 0.0208244 0.680001 
35 0.946748 0.400171 0.680006 
45 0.971815 0.0974519 0.680001 
4 0.965112 0.11748 0.679884 
47 0.970622 -0.292957 0.68002 
77 0.962222 0.330004 0.679889 
31 0.983403 -0.0320252 0.679884 
48 0.71426 0.155089 0.679889 
36 0.842612 0.188677 0.680006 
74 0.853129 -0.299312 0.679895 
70 0.853193 -0.400153 0.679901 
81 0.845874 -0.198241 0.679899 
82 0.849556 0.0260857 0.679886 
80 0.853926 -0.00347882 0.679901 
75 0.846105 -0.0956067 0.680016 
86 0.854155 0.0978806 0.679884 
68 0.846824 0.300219 0.680006 
71 0.846903 0.200283 0.679889 
66 0.846921 0.402134 0.679889 
17 0.699486 0.244176 0.680014 
39 0.753725 -0.400615 0.67989 
43 0.753722 -0.300782 0.67989 
67 0.746152 0.163992 0.679583 
60 0.75456 0.200367 0.679889 
65 0.754649 0.298862 0.680006 
78 0.874423 -0.318115 0.680005 
38 0.868139 0.0923102 0.679886 
32 0.999407 0.245395 0.680001 
64 0.998852 0.145412 0.679884 
52 0.997038 0.191103 0.679884 
10 1.01619 -0.0742135 0.679903 
24 1.01586 -0.122002 0.679903 
27 0.899577 0.245494 0.680006 
0 0.914638 0.310652 0.679888 
83 0.911279 0.242058 0.679889 
57 0.919627 -0.0972936 0.679884 
59 0.906014 0.151614 0.679889 
42 0.89409 -0.00468536 0.680001 
76 0.876054 0.124269 0.679895 
84 0.900286 -0.415621 0.680005 
62 0.89369 -0.193392 0.679988 
63 0.897006 0.0184994 0.679884 
14 0.59627 0.274441 0.680909 
25 1.03345 0.055866 0.680009 
20 1.04204 -0.0251391 0.680003 
23 1.04482 -0.298301 0.679893 
16 1.04416 -0.0992578 0.680005 
13 1.04167 -0.17091 0.679883 
9 1.04618 0.101945 0.679894 
12 1.04568 0.00188336 0.680007 
6 1.04629 0.200277 0.679898 
3 1.04645 0.300326 0.679897 
1 1.04776 0.399874 0.678649 
41 1.05 0.385962 0.679914 
29 1.04535 -0.399392 0.680013 
26 1.04527 -0.299142 0.67989 
19 1.04507 -0.19815 0.680011 
46 1.04738 0.278791 0.67989 
5 0.653552 -0.400259 0.67989 
15 0.655773 -0.101781 0.680007 
18 0.655742 -0.000804359 0.67989 
8 0.653697 -0.300217 0.67989 
11 0.653936 -0.202098 0.67989 
22 0.654908 0.0980626 0.67989 
28 0.654443 0.199666 0.679846 
33 0.654573 0.299416 0.680015 
79 0.668703 0.0681599 0.679964 
