[INFO][ 0.00290] Loading Type index...
[INFO][ 0.00342] Loading Object index...
[INFO][ 0.00362] Loading Symbol index...
[INFO][ 0.00366] Loading Variable index...
[INFO][ 0.00371] Loading Metadata...
[INFO][ 0.00372] All indexes loaded
[INFO][ 0.01168] Loading initial state...
[INFO][ 0.01170] Loading action data...
[INFO][ 0.01198] Loading goal formula...
[INFO][ 0.01201] Loading state constraints...
[INFO][ 0.01736] Created a direct sat. manager for formula: holding() = o2
[INFO][ 0.01777] Problem instance loaded:
Planning Problem [domain: ctmp.1, instance: instance_25_1_1]
Goal Conditions:
------------------
	holding() = o2

State Constraints:
------------------
	@nonoverlap_ro(confb(rob), traj(rob), confo(o1)) = 1 and @nonoverlap_ro(confb(rob), traj(rob), confo(o2)) = 1 and @nonoverlap_ro(confb(rob), traj(rob), confo(o3)) = 1 and @nonoverlap_ro(confb(rob), traj(rob), confo(o4)) = 1 and @nonoverlap_ro(confb(rob), traj(rob), confo(o5)) = 1 and @nonoverlap_ro(confb(rob), traj(rob), confo(o6)) = 1 and @nonoverlap_ro(confb(rob), traj(rob), confo(o7)) = 1 and @nonoverlap_ro(confb(rob), traj(rob), confo(o8)) = 1 and @nonoverlap_ro(confb(rob), traj(rob), confo(o9)) = 1 and @nonoverlap_ro(confb(rob), traj(rob), confo(o10)) = 1 and @nonoverlap_ro(confb(rob), traj(rob), confo(o11)) = 1 and @nonoverlap_ro(confb(rob), traj(rob), confo(o12)) = 1 and @nonoverlap_ro(confb(rob), traj(rob), confo(o13)) = 1 and @nonoverlap_ro(confb(rob), traj(rob), confo(o14)) = 1 and @nonoverlap_ro(confb(rob), traj(rob), confo(o15)) = 1 and @nonoverlap_ro(confb(rob), traj(rob), confo(o16)) = 1 and @nonoverlap_ro(confb(rob), traj(rob), confo(o17)) = 1 and @nonoverlap_ro(confb(rob), traj(rob), confo(o18)) = 1 and @nonoverlap_ro(confb(rob), traj(rob), confo(o19)) = 1 and @nonoverlap_ro(confb(rob), traj(rob), confo(o20)) = 1 and @nonoverlap_ro(confb(rob), traj(rob), confo(o21)) = 1 and @nonoverlap_ro(confb(rob), traj(rob), confo(o22)) = 1 and @nonoverlap_ro(confb(rob), traj(rob), confo(o23)) = 1 and @nonoverlap_ro(confb(rob), traj(rob), confo(o24)) = 1 and @nonoverlap_ro(confb(rob), traj(rob), confo(o25)) = 1 and @nonoverlap_oo(confo(o1), confo(o2)) = 1 and @nonoverlap_oo(confo(o1), confo(o3)) = 1 and @nonoverlap_oo(confo(o1), confo(o4)) = 1 and @nonoverlap_oo(confo(o1), confo(o5)) = 1 and @nonoverlap_oo(confo(o1), confo(o6)) = 1 and @nonoverlap_oo(confo(o1), confo(o7)) = 1 and @nonoverlap_oo(confo(o1), confo(o8)) = 1 and @nonoverlap_oo(confo(o1), confo(o9)) = 1 and @nonoverlap_oo(confo(o1), confo(o10)) = 1 and @nonoverlap_oo(confo(o1), confo(o11)) = 1 and @nonoverlap_oo(confo(o1), confo(o12)) = 1 and @nonoverlap_oo(confo(o1), confo(o13)) = 1 and @nonoverlap_oo(confo(o1), confo(o14)) = 1 and @nonoverlap_oo(confo(o1), confo(o15)) = 1 and @nonoverlap_oo(confo(o1), confo(o16)) = 1 and @nonoverlap_oo(confo(o1), confo(o17)) = 1 and @nonoverlap_oo(confo(o1), confo(o18)) = 1 and @nonoverlap_oo(confo(o1), confo(o19)) = 1 and @nonoverlap_oo(confo(o1), confo(o20)) = 1 and @nonoverlap_oo(confo(o1), confo(o21)) = 1 and @nonoverlap_oo(confo(o1), confo(o22)) = 1 and @nonoverlap_oo(confo(o1), confo(o23)) = 1 and @nonoverlap_oo(confo(o1), confo(o24)) = 1 and @nonoverlap_oo(confo(o1), confo(o25)) = 1 and @nonoverlap_oo(confo(o2), confo(o3)) = 1 and @nonoverlap_oo(confo(o2), confo(o4)) = 1 and @nonoverlap_oo(confo(o2), confo(o5)) = 1 and @nonoverlap_oo(confo(o2), confo(o6)) = 1 and @nonoverlap_oo(confo(o2), confo(o7)) = 1 and @nonoverlap_oo(confo(o2), confo(o8)) = 1 and @nonoverlap_oo(confo(o2), confo(o9)) = 1 and @nonoverlap_oo(confo(o2), confo(o10)) = 1 and @nonoverlap_oo(confo(o2), confo(o11)) = 1 and @nonoverlap_oo(confo(o2), confo(o12)) = 1 and @nonoverlap_oo(confo(o2), confo(o13)) = 1 and @nonoverlap_oo(confo(o2), confo(o14)) = 1 and @nonoverlap_oo(confo(o2), confo(o15)) = 1 and @nonoverlap_oo(confo(o2), confo(o16)) = 1 and @nonoverlap_oo(confo(o2), confo(o17)) = 1 and @nonoverlap_oo(confo(o2), confo(o18)) = 1 and @nonoverlap_oo(confo(o2), confo(o19)) = 1 and @nonoverlap_oo(confo(o2), confo(o20)) = 1 and @nonoverlap_oo(confo(o2), confo(o21)) = 1 and @nonoverlap_oo(confo(o2), confo(o22)) = 1 and @nonoverlap_oo(confo(o2), confo(o23)) = 1 and @nonoverlap_oo(confo(o2), confo(o24)) = 1 and @nonoverlap_oo(confo(o2), confo(o25)) = 1 and @nonoverlap_oo(confo(o3), confo(o4)) = 1 and @nonoverlap_oo(confo(o3), confo(o5)) = 1 and @nonoverlap_oo(confo(o3), confo(o6)) = 1 and @nonoverlap_oo(confo(o3), confo(o7)) = 1 and @nonoverlap_oo(confo(o3), confo(o8)) = 1 and @nonoverlap_oo(confo(o3), confo(o9)) = 1 and @nonoverlap_oo(confo(o3), confo(o10)) = 1 and @nonoverlap_oo(confo(o3), confo(o11)) = 1 and @nonoverlap_oo(confo(o3), confo(o12)) = 1 and @nonoverlap_oo(confo(o3), confo(o13)) = 1 and @nonoverlap_oo(confo(o3), confo(o14)) = 1 and @nonoverlap_oo(confo(o3), confo(o15)) = 1 and @nonoverlap_oo(confo(o3), confo(o16)) = 1 and @nonoverlap_oo(confo(o3), confo(o17)) = 1 and @nonoverlap_oo(confo(o3), confo(o18)) = 1 and @nonoverlap_oo(confo(o3), confo(o19)) = 1 and @nonoverlap_oo(confo(o3), confo(o20)) = 1 and @nonoverlap_oo(confo(o3), confo(o21)) = 1 and @nonoverlap_oo(confo(o3), confo(o22)) = 1 and @nonoverlap_oo(confo(o3), confo(o23)) = 1 and @nonoverlap_oo(confo(o3), confo(o24)) = 1 and @nonoverlap_oo(confo(o3), confo(o25)) = 1 and @nonoverlap_oo(confo(o4), confo(o5)) = 1 and @nonoverlap_oo(confo(o4), confo(o6)) = 1 and @nonoverlap_oo(confo(o4), confo(o7)) = 1 and @nonoverlap_oo(confo(o4), confo(o8)) = 1 and @nonoverlap_oo(confo(o4), confo(o9)) = 1 and @nonoverlap_oo(confo(o4), confo(o10)) = 1 and @nonoverlap_oo(confo(o4), confo(o11)) = 1 and @nonoverlap_oo(confo(o4), confo(o12)) = 1 and @nonoverlap_oo(confo(o4), confo(o13)) = 1 and @nonoverlap_oo(confo(o4), confo(o14)) = 1 and @nonoverlap_oo(confo(o4), confo(o15)) = 1 and @nonoverlap_oo(confo(o4), confo(o16)) = 1 and @nonoverlap_oo(confo(o4), confo(o17)) = 1 and @nonoverlap_oo(confo(o4), confo(o18)) = 1 and @nonoverlap_oo(confo(o4), confo(o19)) = 1 and @nonoverlap_oo(confo(o4), confo(o20)) = 1 and @nonoverlap_oo(confo(o4), confo(o21)) = 1 and @nonoverlap_oo(confo(o4), confo(o22)) = 1 and @nonoverlap_oo(confo(o4), confo(o23)) = 1 and @nonoverlap_oo(confo(o4), confo(o24)) = 1 and @nonoverlap_oo(confo(o4), confo(o25)) = 1 and @nonoverlap_oo(confo(o5), confo(o6)) = 1 and @nonoverlap_oo(confo(o5), confo(o7)) = 1 and @nonoverlap_oo(confo(o5), confo(o8)) = 1 and @nonoverlap_oo(confo(o5), confo(o9)) = 1 and @nonoverlap_oo(confo(o5), confo(o10)) = 1 and @nonoverlap_oo(confo(o5), confo(o11)) = 1 and @nonoverlap_oo(confo(o5), confo(o12)) = 1 and @nonoverlap_oo(confo(o5), confo(o13)) = 1 and @nonoverlap_oo(confo(o5), confo(o14)) = 1 and @nonoverlap_oo(confo(o5), confo(o15)) = 1 and @nonoverlap_oo(confo(o5), confo(o16)) = 1 and @nonoverlap_oo(confo(o5), confo(o17)) = 1 and @nonoverlap_oo(confo(o5), confo(o18)) = 1 and @nonoverlap_oo(confo(o5), confo(o19)) = 1 and @nonoverlap_oo(confo(o5), confo(o20)) = 1 and @nonoverlap_oo(confo(o5), confo(o21)) = 1 and @nonoverlap_oo(confo(o5), confo(o22)) = 1 and @nonoverlap_oo(confo(o5), confo(o23)) = 1 and @nonoverlap_oo(confo(o5), confo(o24)) = 1 and @nonoverlap_oo(confo(o5), confo(o25)) = 1 and @nonoverlap_oo(confo(o6), confo(o7)) = 1 and @nonoverlap_oo(confo(o6), confo(o8)) = 1 and @nonoverlap_oo(confo(o6), confo(o9)) = 1 and @nonoverlap_oo(confo(o6), confo(o10)) = 1 and @nonoverlap_oo(confo(o6), confo(o11)) = 1 and @nonoverlap_oo(confo(o6), confo(o12)) = 1 and @nonoverlap_oo(confo(o6), confo(o13)) = 1 and @nonoverlap_oo(confo(o6), confo(o14)) = 1 and @nonoverlap_oo(confo(o6), confo(o15)) = 1 and @nonoverlap_oo(confo(o6), confo(o16)) = 1 and @nonoverlap_oo(confo(o6), confo(o17)) = 1 and @nonoverlap_oo(confo(o6), confo(o18)) = 1 and @nonoverlap_oo(confo(o6), confo(o19)) = 1 and @nonoverlap_oo(confo(o6), confo(o20)) = 1 and @nonoverlap_oo(confo(o6), confo(o21)) = 1 and @nonoverlap_oo(confo(o6), confo(o22)) = 1 and @nonoverlap_oo(confo(o6), confo(o23)) = 1 and @nonoverlap_oo(confo(o6), confo(o24)) = 1 and @nonoverlap_oo(confo(o6), confo(o25)) = 1 and @nonoverlap_oo(confo(o7), confo(o8)) = 1 and @nonoverlap_oo(confo(o7), confo(o9)) = 1 and @nonoverlap_oo(confo(o7), confo(o10)) = 1 and @nonoverlap_oo(confo(o7), confo(o11)) = 1 and @nonoverlap_oo(confo(o7), confo(o12)) = 1 and @nonoverlap_oo(confo(o7), confo(o13)) = 1 and @nonoverlap_oo(confo(o7), confo(o14)) = 1 and @nonoverlap_oo(confo(o7), confo(o15)) = 1 and @nonoverlap_oo(confo(o7), confo(o16)) = 1 and @nonoverlap_oo(confo(o7), confo(o17)) = 1 and @nonoverlap_oo(confo(o7), confo(o18)) = 1 and @nonoverlap_oo(confo(o7), confo(o19)) = 1 and @nonoverlap_oo(confo(o7), confo(o20)) = 1 and @nonoverlap_oo(confo(o7), confo(o21)) = 1 and @nonoverlap_oo(confo(o7), confo(o22)) = 1 and @nonoverlap_oo(confo(o7), confo(o23)) = 1 and @nonoverlap_oo(confo(o7), confo(o24)) = 1 and @nonoverlap_oo(confo(o7), confo(o25)) = 1 and @nonoverlap_oo(confo(o8), confo(o9)) = 1 and @nonoverlap_oo(confo(o8), confo(o10)) = 1 and @nonoverlap_oo(confo(o8), confo(o11)) = 1 and @nonoverlap_oo(confo(o8), confo(o12)) = 1 and @nonoverlap_oo(confo(o8), confo(o13)) = 1 and @nonoverlap_oo(confo(o8), confo(o14)) = 1 and @nonoverlap_oo(confo(o8), confo(o15)) = 1 and @nonoverlap_oo(confo(o8), confo(o16)) = 1 and @nonoverlap_oo(confo(o8), confo(o17)) = 1 and @nonoverlap_oo(confo(o8), confo(o18)) = 1 and @nonoverlap_oo(confo(o8), confo(o19)) = 1 and @nonoverlap_oo(confo(o8), confo(o20)) = 1 and @nonoverlap_oo(confo(o8), confo(o21)) = 1 and @nonoverlap_oo(confo(o8), confo(o22)) = 1 and @nonoverlap_oo(confo(o8), confo(o23)) = 1 and @nonoverlap_oo(confo(o8), confo(o24)) = 1 and @nonoverlap_oo(confo(o8), confo(o25)) = 1 and @nonoverlap_oo(confo(o9), confo(o10)) = 1 and @nonoverlap_oo(confo(o9), confo(o11)) = 1 and @nonoverlap_oo(confo(o9), confo(o12)) = 1 and @nonoverlap_oo(confo(o9), confo(o13)) = 1 and @nonoverlap_oo(confo(o9), confo(o14)) = 1 and @nonoverlap_oo(confo(o9), confo(o15)) = 1 and @nonoverlap_oo(confo(o9), confo(o16)) = 1 and @nonoverlap_oo(confo(o9), confo(o17)) = 1 and @nonoverlap_oo(confo(o9), confo(o18)) = 1 and @nonoverlap_oo(confo(o9), confo(o19)) = 1 and @nonoverlap_oo(confo(o9), confo(o20)) = 1 and @nonoverlap_oo(confo(o9), confo(o21)) = 1 and @nonoverlap_oo(confo(o9), confo(o22)) = 1 and @nonoverlap_oo(confo(o9), confo(o23)) = 1 and @nonoverlap_oo(confo(o9), confo(o24)) = 1 and @nonoverlap_oo(confo(o9), confo(o25)) = 1 and @nonoverlap_oo(confo(o10), confo(o11)) = 1 and @nonoverlap_oo(confo(o10), confo(o12)) = 1 and @nonoverlap_oo(confo(o10), confo(o13)) = 1 and @nonoverlap_oo(confo(o10), confo(o14)) = 1 and @nonoverlap_oo(confo(o10), confo(o15)) = 1 and @nonoverlap_oo(confo(o10), confo(o16)) = 1 and @nonoverlap_oo(confo(o10), confo(o17)) = 1 and @nonoverlap_oo(confo(o10), confo(o18)) = 1 and @nonoverlap_oo(confo(o10), confo(o19)) = 1 and @nonoverlap_oo(confo(o10), confo(o20)) = 1 and @nonoverlap_oo(confo(o10), confo(o21)) = 1 and @nonoverlap_oo(confo(o10), confo(o22)) = 1 and @nonoverlap_oo(confo(o10), confo(o23)) = 1 and @nonoverlap_oo(confo(o10), confo(o24)) = 1 and @nonoverlap_oo(confo(o10), confo(o25)) = 1 and @nonoverlap_oo(confo(o11), confo(o12)) = 1 and @nonoverlap_oo(confo(o11), confo(o13)) = 1 and @nonoverlap_oo(confo(o11), confo(o14)) = 1 and @nonoverlap_oo(confo(o11), confo(o15)) = 1 and @nonoverlap_oo(confo(o11), confo(o16)) = 1 and @nonoverlap_oo(confo(o11), confo(o17)) = 1 and @nonoverlap_oo(confo(o11), confo(o18)) = 1 and @nonoverlap_oo(confo(o11), confo(o19)) = 1 and @nonoverlap_oo(confo(o11), confo(o20)) = 1 and @nonoverlap_oo(confo(o11), confo(o21)) = 1 and @nonoverlap_oo(confo(o11), confo(o22)) = 1 and @nonoverlap_oo(confo(o11), confo(o23)) = 1 and @nonoverlap_oo(confo(o11), confo(o24)) = 1 and @nonoverlap_oo(confo(o11), confo(o25)) = 1 and @nonoverlap_oo(confo(o12), confo(o13)) = 1 and @nonoverlap_oo(confo(o12), confo(o14)) = 1 and @nonoverlap_oo(confo(o12), confo(o15)) = 1 and @nonoverlap_oo(confo(o12), confo(o16)) = 1 and @nonoverlap_oo(confo(o12), confo(o17)) = 1 and @nonoverlap_oo(confo(o12), confo(o18)) = 1 and @nonoverlap_oo(confo(o12), confo(o19)) = 1 and @nonoverlap_oo(confo(o12), confo(o20)) = 1 and @nonoverlap_oo(confo(o12), confo(o21)) = 1 and @nonoverlap_oo(confo(o12), confo(o22)) = 1 and @nonoverlap_oo(confo(o12), confo(o23)) = 1 and @nonoverlap_oo(confo(o12), confo(o24)) = 1 and @nonoverlap_oo(confo(o12), confo(o25)) = 1 and @nonoverlap_oo(confo(o13), confo(o14)) = 1 and @nonoverlap_oo(confo(o13), confo(o15)) = 1 and @nonoverlap_oo(confo(o13), confo(o16)) = 1 and @nonoverlap_oo(confo(o13), confo(o17)) = 1 and @nonoverlap_oo(confo(o13), confo(o18)) = 1 and @nonoverlap_oo(confo(o13), confo(o19)) = 1 and @nonoverlap_oo(confo(o13), confo(o20)) = 1 and @nonoverlap_oo(confo(o13), confo(o21)) = 1 and @nonoverlap_oo(confo(o13), confo(o22)) = 1 and @nonoverlap_oo(confo(o13), confo(o23)) = 1 and @nonoverlap_oo(confo(o13), confo(o24)) = 1 and @nonoverlap_oo(confo(o13), confo(o25)) = 1 and @nonoverlap_oo(confo(o14), confo(o15)) = 1 and @nonoverlap_oo(confo(o14), confo(o16)) = 1 and @nonoverlap_oo(confo(o14), confo(o17)) = 1 and @nonoverlap_oo(confo(o14), confo(o18)) = 1 and @nonoverlap_oo(confo(o14), confo(o19)) = 1 and @nonoverlap_oo(confo(o14), confo(o20)) = 1 and @nonoverlap_oo(confo(o14), confo(o21)) = 1 and @nonoverlap_oo(confo(o14), confo(o22)) = 1 and @nonoverlap_oo(confo(o14), confo(o23)) = 1 and @nonoverlap_oo(confo(o14), confo(o24)) = 1 and @nonoverlap_oo(confo(o14), confo(o25)) = 1 and @nonoverlap_oo(confo(o15), confo(o16)) = 1 and @nonoverlap_oo(confo(o15), confo(o17)) = 1 and @nonoverlap_oo(confo(o15), confo(o18)) = 1 and @nonoverlap_oo(confo(o15), confo(o19)) = 1 and @nonoverlap_oo(confo(o15), confo(o20)) = 1 and @nonoverlap_oo(confo(o15), confo(o21)) = 1 and @nonoverlap_oo(confo(o15), confo(o22)) = 1 and @nonoverlap_oo(confo(o15), confo(o23)) = 1 and @nonoverlap_oo(confo(o15), confo(o24)) = 1 and @nonoverlap_oo(confo(o15), confo(o25)) = 1 and @nonoverlap_oo(confo(o16), confo(o17)) = 1 and @nonoverlap_oo(confo(o16), confo(o18)) = 1 and @nonoverlap_oo(confo(o16), confo(o19)) = 1 and @nonoverlap_oo(confo(o16), confo(o20)) = 1 and @nonoverlap_oo(confo(o16), confo(o21)) = 1 and @nonoverlap_oo(confo(o16), confo(o22)) = 1 and @nonoverlap_oo(confo(o16), confo(o23)) = 1 and @nonoverlap_oo(confo(o16), confo(o24)) = 1 and @nonoverlap_oo(confo(o16), confo(o25)) = 1 and @nonoverlap_oo(confo(o17), confo(o18)) = 1 and @nonoverlap_oo(confo(o17), confo(o19)) = 1 and @nonoverlap_oo(confo(o17), confo(o20)) = 1 and @nonoverlap_oo(confo(o17), confo(o21)) = 1 and @nonoverlap_oo(confo(o17), confo(o22)) = 1 and @nonoverlap_oo(confo(o17), confo(o23)) = 1 and @nonoverlap_oo(confo(o17), confo(o24)) = 1 and @nonoverlap_oo(confo(o17), confo(o25)) = 1 and @nonoverlap_oo(confo(o18), confo(o19)) = 1 and @nonoverlap_oo(confo(o18), confo(o20)) = 1 and @nonoverlap_oo(confo(o18), confo(o21)) = 1 and @nonoverlap_oo(confo(o18), confo(o22)) = 1 and @nonoverlap_oo(confo(o18), confo(o23)) = 1 and @nonoverlap_oo(confo(o18), confo(o24)) = 1 and @nonoverlap_oo(confo(o18), confo(o25)) = 1 and @nonoverlap_oo(confo(o19), confo(o20)) = 1 and @nonoverlap_oo(confo(o19), confo(o21)) = 1 and @nonoverlap_oo(confo(o19), confo(o22)) = 1 and @nonoverlap_oo(confo(o19), confo(o23)) = 1 and @nonoverlap_oo(confo(o19), confo(o24)) = 1 and @nonoverlap_oo(confo(o19), confo(o25)) = 1 and @nonoverlap_oo(confo(o20), confo(o21)) = 1 and @nonoverlap_oo(confo(o20), confo(o22)) = 1 and @nonoverlap_oo(confo(o20), confo(o23)) = 1 and @nonoverlap_oo(confo(o20), confo(o24)) = 1 and @nonoverlap_oo(confo(o20), confo(o25)) = 1 and @nonoverlap_oo(confo(o21), confo(o22)) = 1 and @nonoverlap_oo(confo(o21), confo(o23)) = 1 and @nonoverlap_oo(confo(o21), confo(o24)) = 1 and @nonoverlap_oo(confo(o21), confo(o25)) = 1 and @nonoverlap_oo(confo(o22), confo(o23)) = 1 and @nonoverlap_oo(confo(o22), confo(o24)) = 1 and @nonoverlap_oo(confo(o22), confo(o25)) = 1 and @nonoverlap_oo(confo(o23), confo(o24)) = 1 and @nonoverlap_oo(confo(o23), confo(o25)) = 1 and @nonoverlap_oo(confo(o24), confo(o25)) = 1

Action data
------------------
transition_base(?e: edge)
	Precondition:@source_base(confb(rob), ?0) = 1 and confa(rob) = ca0
	Effects:
		confb(rob) := @target_base(confb(rob), ?0)

transition_arm(?t: trajectory)
	Precondition:@source_arm(confa(rob), ?0) = 1
	Effects:
		confa(rob) := @target_arm(confa(rob), ?0)
		traj(rob) := ?0

grasp-object(?o: object_id)
	Precondition:holding() = no_object and @graspable(confb(rob), confa(rob), confo(?0)) = 1
	Effects:
		holding() := ?0
		confo(?0) := c_held

place-object(?o: object_id)
	Precondition:holding() = ?0 and @placeable(confb(rob), confa(rob)) = 1
	Effects:
		holding() := no_object
		confo(?0) := @placing_pose(confb(rob), confa(rob))


Ground Actions: 0

[INFO][ 0.10142] Planner configuration: 
Action Resolution:	Full
Goal Resolution:	Full
Plan Extraction:	Propositional
Goal CSP Value Selection:	Value with minimum h_max value
Action CSP Value Selection:	Minimum value
Support Priority:	First support found

