0 3 10
0 4 16
0 5 22
0 6 27
0 7 30
0 8 35
0 9 41
0 10 48
0 13 59
0 14 66
0 15 73
0 16 81
0 17 90
0 18 92
0 19 96
0 20 104
0 21 104
0 24 116
0 25 123
0 26 132
0 27 141
22 2 3
22 3 7
22 4 12
22 5 18
22 6 24
22 7 28
22 8 31
22 9 36
22 10 42
22 12 52
22 13 56
22 14 61
22 15 68
22 16 75
22 17 83
22 18 74
22 19 93
22 20 97
22 21 99
22 22 109
22 23 109
22 24 113
22 25 118
22 26 125
22 27 134
23 1 0
23 2 2
23 3 6
23 4 11
23 5 17
23 6 23
23 11 49
23 12 51
23 13 55
23 14 60
23 15 67
23 16 74
23 17 82
23 18 91
23 22 108
23 23 108
23 24 112
23 25 117
23 26 124
23 27 133
24 9 38
24 10 45
24 17 85
24 18 76
24 19 94
24 20 100
24 21 100
24 26 127
24 27 136
25 8 32
25 9 37
25 10 43
25 14 62
25 15 69
25 16 76
25 17 84
25 18 75
25 19 67
25 20 98
25 21 105
25 25 119
25 26 126
25 27 135
26 2 3
26 3 7
26 4 12
26 5 18
26 6 24
26 7 28
26 8 31
26 9 36
26 10 44
26 12 52
26 13 56
26 14 61
26 15 68
26 16 75
26 17 83
26 18 74
26 19 93
26 20 99
26 21 99
26 22 109
26 23 109
26 24 113
26 25 118
26 26 125
26 27 134
49 8 33
49 9 39
49 10 46
49 16 77
49 17 86
49 18 79
49 19 70
49 20 101
49 21 101
49 26 128
49 27 137
50 4 14
50 5 20
50 6 26
50 7 29
50 8 34
50 9 40
50 10 47
50 14 64
50 15 71
50 16 79
50 17 88
50 18 78
50 19 72
50 20 103
50 21 107
50 25 121
50 26 130
50 27 139
51 2 4
51 3 8
51 4 13
51 5 19
51 6 25
51 12 53
51 13 57
51 14 63
51 15 70
51 16 78
51 17 87
51 18 80
51 19 95
51 20 102
51 21 106
51 22 110
51 23 110
51 24 114
51 25 120
51 26 129
51 27 138
52 1 1
52 2 5
52 3 9
52 4 15
52 5 21
52 11 50
52 12 54
52 13 58
52 14 65
52 15 72
52 16 80
52 17 89
52 22 111
52 23 111
52 24 115
52 25 122
52 26 131
52 27 140
