50 -1.24397 -2.05357 0.67999 
137 -1.22605 -1.95081 0.68 
63 -1.19458 -1.90626 0.68 
26 -1.20143 -1.75432 0.679991 
79 -1.20022 -1.85426 0.680005 
8 -1.31697 -1.83436 0.679991 
128 -1.32401 -1.92434 0.680001 
13 -1.22032 -1.80984 0.680001 
5 -1.20604 -1.91563 0.679991 
33 -1.17304 -1.75776 0.680051 
9 -1.11956 -1.86554 0.68 
111 -1.1073 -2.09022 0.67999 
120 -1.16798 -2.00166 0.680089 
102 -0.615995 -1.75186 0.68 
140 -0.587569 -1.79075 0.68 
19 -1.12519 -1.78427 0.680001 
106 -0.61468 -1.75054 0.68 
131 -0.675495 -1.84128 0.679994 
21 -0.947312 -1.76736 0.68 
65 -0.982797 -1.90329 0.679991 
46 -0.98067 -1.81008 0.68 
101 -1.00655 -1.90653 0.680001 
58 -1.06938 -1.95331 0.680001 
88 -1.1003 -1.85423 0.680009 
29 -1.09986 -1.75395 0.680109 
39 -1.0767 -1.78391 0.680004 
25 -1.02858 -1.75841 0.68 
15 -1.03249 -1.81662 0.68 
70 -1.09797 -1.88034 0.68 
130 -1.10301 -1.95423 0.680004 
54 -1.16012 -2.00019 0.680108 
87 -0.905112 -1.82869 0.680001 
72 -0.89619 -1.85327 0.680001 
40 -0.900347 -1.75446 0.679997 
122 -0.932545 -1.98898 0.68 
129 -0.881815 -1.92589 0.679999 
78 -1.00159 -1.85447 0.680001 
115 -1.02061 -2.03979 0.67999 
139 -1.00161 -1.95443 0.679991 
34 -0.999991 -1.75406 0.680124 
57 -1.29126 -1.93217 0.68 
114 -1.2666 -2.02832 0.680004 
1 -1.29253 -1.96584 0.68 
121 -1.39943 -1.95355 0.680001 
64 -1.40013 -1.85428 0.68 
14 -1.39984 -1.75436 0.680001 
4 -1.41359 -1.86038 0.68 
86 -1.29558 -1.82856 0.679997 
71 -1.30015 -1.85425 0.68 
20 -1.30141 -1.75435 0.679991 
77 -1.39202 -1.80262 0.680003 
53 -1.38806 -1.95802 0.68 
110 -1.36338 -2.05458 0.67999 
112 0.821656 0.0664057 0.680001 
108 0.796051 0.163613 0.680224 
133 0.95015 -0.416228 0.679991 
100 0.946777 0.018441 0.680001 
97 0.994989 -0.398702 0.680001 
2 0.989673 0.213522 0.680001 
99 0.995032 -0.398722 0.680001 
74 0.995497 -0.198444 0.679996 
83 0.995704 -0.0996388 0.679998 
0 0.963617 0.310159 0.680001 
136 0.960846 0.241992 0.679991 
67 0.96965 -0.101961 0.679992 
117 0.860622 -0.0522563 0.682399 
123 0.853222 -0.299347 0.680134 
116 0.853594 -0.401183 0.680001 
132 0.854216 -0.00300142 0.680004 
141 0.854422 0.0984346 0.680001 
73 0.754248 -0.200157 0.680001 
59 0.754263 -0.400228 0.680001 
66 0.754277 -0.300115 0.680001 
81 0.754255 -0.10022 0.680003 
90 0.754397 -0.000473363 0.680005 
92 0.754452 0.0994286 0.680004 
96 0.754705 0.19919 0.680005 
104 0.754718 0.299273 0.680001 
105 0.943957 -0.195007 0.68 
98 0.94346 -0.193198 0.68 
55 0.917841 0.0913588 0.680001 
60 0.943748 -0.00533073 0.68 
126 0.925669 0.124001 0.679995 
127 1.01173 0.329706 0.680001 
82 1.02137 -0.29497 0.68001 
49 0.866236 0.285972 0.680001 
61 0.995718 0.200124 0.679991 
56 0.995727 0.300224 0.680001 
93 0.995208 -0.299116 0.680006 
68 0.995749 0.100149 0.680001 
94 0.996813 0.105043 0.679991 
75 0.99574 0.000246143 0.679993 
52 0.995995 0.400356 0.679991 
119 1.00299 0.410219 0.680001 
113 0.896404 0.301184 0.679991 
118 0.896348 0.19909 0.679989 
134 0.895559 -0.198332 0.680001 
135 0.89922 0.0260721 0.679991 
124 0.924069 -0.318209 0.679991 
109 0.896261 0.401533 0.679994 
51 0.892324 0.188117 0.68 
125 0.895784 -0.0970019 0.679993 
24 1.09546 0.0014105 0.68 
18 1.09571 0.101404 0.680001 
12 1.09557 0.199872 0.679992 
85 1.09695 0.27741 0.68001 
7 1.09683 0.299625 0.679991 
3 1.09672 0.399565 0.68 
62 1.0991 0.385117 0.679998 
28 1.09601 -0.100091 0.680097 
31 1.09593 -0.199889 0.680129 
36 1.09555 -0.299666 0.680017 
38 1.08329 0.0546255 0.68 
44 1.09494 -0.398997 0.679991 
32 1.0923 -0.0271043 0.680088 
23 1.09153 -0.171468 0.680001 
42 1.09517 -0.399179 0.679999 
43 1.03981 -0.219164 0.679991 
45 1.03322 -0.0314554 0.680004 
6 1.01572 0.116745 0.679994 
84 1.02152 0.0955336 0.679999 
76 1.04738 0.192031 0.679995 
11 1.04024 0.020271 0.679991 
91 1.04662 -0.391002 0.679991 
69 1.07328 0.288606 0.680001 
17 1.06588 -0.0747557 0.68 
37 1.06598 -0.123175 0.679993 
47 -0.800814 -1.75487 0.68 
107 -0.799767 -1.85404 0.679991 
103 -0.801349 -1.85505 0.679991 
80 -0.809662 -1.80332 0.679994 
138 -0.783817 -1.89985 0.679991 
95 -0.712456 -1.77761 0.679991 
89 -0.723134 -1.75341 0.679999 
10 0.653325 -0.399689 0.679991 
16 0.654475 -0.299923 0.680001 
22 0.654242 -0.201343 0.68 
27 0.654601 -0.101465 0.680001 
30 0.654338 0.000125436 0.680005 
35 0.654194 0.0998679 0.680073 
41 0.654441 0.199654 0.680015 
48 0.654817 0.299245 0.679993 
