{
	"total_time": 722.356,
	"search_time": 141.048,
	"search_time_alt": 141.046,
	"memory": 151128,
	"generated": 204474,
	"expanded": 40637,
	"evaluated": 204474,
	"gen_per_second": 1449.676880,
	"eval_per_second": 1449.676880,
	"solved": true,
	"valid": true,
	"out_of_memory": false,
	"plan_length": 71,
	"plan": ["transition_arm(t51)", "grasp-object(o7)", "transition_arm(t10048)", "transition_arm(t44)", "place-object()", "transition_arm(t10044)", "transition_arm(t40)", "grasp-object(o27)", "transition_arm(t10040)", "transition_base(e63)", "transition_base(e3)", "transition_arm(t23)", "place-object()", "transition_arm(t10024)", "transition_arm(t58)", "grasp-object(o3)", "transition_arm(t10056)", "transition_arm(t44)", "place-object()", "transition_arm(t10044)", "transition_arm(t26)", "grasp-object(o6)", "transition_arm(t10025)", "transition_arm(t83)", "place-object()", "transition_arm(t10084)", "transition_arm(t65)", "grasp-object(o11)", "transition_arm(t10064)", "transition_base(e11)", "transition_base(e10063)", "transition_arm(t50)", "place-object()", "transition_arm(t10048)", "transition_arm(t77)", "grasp-object(o29)", "transition_arm(t10076)", "transition_base(e63)", "transition_arm(t51)", "place-object()", "transition_arm(t10048)", "transition_arm(t76)", "grasp-object(o13)", "transition_arm(t10076)", "transition_base(e10063)", "transition_arm(t76)", "place-object()", "transition_arm(t10076)", "transition_base(e63)", "transition_base(e10048)", "transition_arm(t16)", "grasp-object(o21)", "transition_arm(t10018)", "transition_arm(t53)", "place-object()", "transition_arm(t10055)", "transition_base(e48)", "transition_arm(t50)", "grasp-object(o29)", "transition_arm(t10048)", "transition_arm(t76)", "place-object()", "transition_arm(t10076)", "transition_base(e10063)", "transition_arm(t47)", "grasp-object(o7)", "transition_arm(t10044)", "transition_base(e63)", "transition_base(e3)", "transition_arm(t66)", "place-object()"]
}
