3 0.465 -0.600001 0.76 0 0 7.34641e-06 
2 0.510399 -0.709602 0.76 0 0 0.785403 
7 0.465 -0.450001 0.76 0 0 7.34641e-06 
5 0.619999 -0.605 0.76 0 0 1.57079 
28 0.615 -0.600001 0.76 0 0 7.34641e-06 
31 0.615 -0.450001 0.76 0 0 7.34641e-06 
9 0.619999 -0.455 0.76 0 0 1.57079 
11 0.465 -0.300001 0.76 0 0 7.34641e-06 
34 0.615 -0.300001 0.76 0 0 7.34641e-06 
13 0.619999 -0.305 0.76 0 0 1.57079 
25 0.465 0.299999 0.76 0 0 7.34641e-06 
18 0.465 -1.13869e-06 0.76 0 0 7.34641e-06 
22 0.465 0.149999 0.76 0 0 7.34641e-06 
15 0.465 -0.150001 0.76 0 0 7.34641e-06 
14 0.510399 -0.259602 0.76 0 0 0.785403 
1 0.510399 -0.490398 0.76 0 0 -0.785403 
6 0.510399 -0.559602 0.76 0 0 0.785403 
39 0.615 -1.13869e-06 0.76 0 0 7.34641e-06 
20 0.619999 -0.005 0.76 0 0 1.57079 
37 0.615 -0.150001 0.76 0 0 7.34641e-06 
42 0.660399 0.190398 0.76 0 0 0.785403 
35 0.660399 -0.040398 0.76 0 0 -0.785403 
40 0.660399 0.040398 0.76 0 0 0.785403 
38 0.660399 0.109602 0.76 0 0 -0.785403 
33 0.660399 -0.409602 0.76 0 0 0.785403 
30 0.660399 -0.559602 0.76 0 0 0.785403 
29 0.660399 -0.340398 0.76 0 0 -0.785403 
27 0.660399 -0.490398 0.76 0 0 -0.785403 
32 0.660399 -0.190398 0.76 0 0 -0.785403 
36 0.660399 -0.259602 0.76 0 0 0.785403 
41 0.615 0.149999 0.76 0 0 7.34641e-06 
23 0.619999 0.145 0.76 0 0 1.57079 
4 0.510399 -0.340398 0.76 0 0 -0.785403 
19 0.510399 0.259602 0.76 0 0 -0.785403 
12 0.510399 -0.040398 0.76 0 0 -0.785403 
10 0.510399 -0.409602 0.76 0 0 0.785403 
21 0.510399 0.040398 0.76 0 0 0.785403 
16 0.510399 0.109602 0.76 0 0 -0.785403 
26 0.510399 0.340398 0.76 0 0 0.785403 
24 0.510399 0.190398 0.76 0 0 0.785403 
8 0.510399 -0.190398 0.76 0 0 -0.785403 
17 0.510399 -0.109602 0.76 0 0 0.785403 
0 -0.349264 -0.090905 0.0899651 -1.21524 -2.57717 -0.597703 2.83762 
